50 20
0X0 0X0 0X0 0X0 0X0 0X0 0X0 0X0 0X0 0X0  0X0 0X0 0X0 0X0 0X0 0X0 0X0 0X0 0X0 0X0  0X0 0X0 0X0 0X0 0X0 0X0 0X0 0X0 0X0 0X0  0X0 0X0 0X0 0X0 0X0 0X0 0X0 0X0 0X0 0X0  0X0 0X0 0X0 0X0 0X0 0X0 0X0 0X0 0X0 0X0
0X0 0X01001001 0X01000001 0X1 0X0 0X0 0X1 0X1 0X1 0X0  0X0 0X0 0X2 0X2 0X2 0X2 0X2 0X0 0X0 0X0  0X0 0X0 0X1 0X1 0X0 0X0 0X0 0X0 0X0 0X0  0X0 0X0 0X2 0X2 0X0 0X0 0X0 0X0 0X0 0X0  0X0 0X0 0x03000001 0x03000001 0x03000001 0x03000001 0x03000001 0x03000001 0X0 0X0 
0X0 0X01000001 0X01000001 0X1 0X0 0X0 0X1 0X1 0X1 0X0  0X0 0X0 0X2 0X2 0X2 0X2 0X2 0X0 0X0 0X0  0X0 0X0 0X1 0X1 0X0 0X0 0X0 0X0 0X0 0X0  0X0 0X0 0X2 0X2 0X0 0X0 0X0 0X0 0X0 0X0  0X0 0X0 0x03000001 0x03000001 0x03000001 0x03000001 0x03000001 0x03000001 0X0 0X0 
0X0 0X01000001 0X01000001 0X1 0X0 0X0 0X1 0X1 0X1 0X0  0X0 0X0 0X2 0X2 0X0 0X0 0X0 0X0 0X0 0X0  0X0 0X0 0X1 0X1 0X0 0X0 0X0 0X0 0X0 0X0  0X0 0X0 0X2 0X2 0X0 0X0 0X0 0X0 0X0 0X0  0X0 0X0 0X03000001 0x03000001 0X0 0X0 0x03000001 0x03000001 0X0 0X0 
0X0 0X01000001 0X01000001 0x01000201 0X1 0X1 0X1 0X1 0X1 0X0  0X0 0X0 0X2 0X2 0X2 0X2 0X202 0X0 0X0 0X0  0X0 0X0 0X101 0X201 0X0 0X0 0X0 0X0 0X0 0X0  0X0 0X0 0X2 0X2 0X0 0X0 0X0 0X0 0X0 0X0  0X0 0X0 0x03000001 0x03000001 0X0 0X0 0x03000001 0x03000001 0X0 0X0 
0X0 0X01000001 0X01000001 0X101 0X1 0X1 0X1 0X1 0X1 0X0  0X0 0X0 0X2 0X2 0X2 0X2 0X2 0X0 0X0 0X0  0X0 0X0 0X1 0X1 0X0 0X0 0X0 0X0 0X0 0X0  0X0 0X0 0X2 0X2 0X0 0X0 0X0 0X0 0X0 0X0  0X0 0X0 0x03000001 0x03000001 0X0 0X0 0x03000001 0x03000001 0X0 0X0 
0X0 0X01000001 0X01000001 0X1 0X0 0X0 0X1 0X1 0X1 0X0  0X0 0X0 0X102 0X2 0X0 0X0 0X0 0X0 0X0 0X0  0X0 0X0 0X1 0X1 0X0 0X0 0X0 0X0 0X0 0X0  0X0 0X0 0X2 0X2 0X0 0X0 0X0 0X0 0X0 0X0  0X0 0X0 0x03000001 0x03000001 0X0 0X0 0x03000001 0x03000001 0X0 0X0 
0X0 0X01000001 0X01000001 0X1 0X0 0X0 0X1 0X1 0X1 0X0  0X0 0X0 0X2 0X2 0X2 0X2 0X2 0X0 0X0 0X0  0X0 0X0 0X1 0X1 0X1 0X1 0X1 0X1 0X0 0X0  0X0 0X0 0X2 0X2 0X2 0X2 0X2 0X2 0X0 0X0  0X0 0X0 0x03000001 0x03000001 0x03000001 0X1 0x03000001 0x03000001 0X0 0X0 
0X0 0X01000001 0X01000001 0X201 0X0 0X0 0X1 0X1 0X1 0X0  0X0 0X0 0X2 0X2 0X2 0X2 0X2 0X0 0X0 0X0  0X0 0X0 0X1 0X1 0X1 0X1 0X1 0X1 0X0 0X0  0X0 0X0 0X2 0X2 0X2 0X2 0X2 0X2 0X0 0X0  0X0 0X0 0x03000001 0x03000001 0x03000001 0x03000001 0x03000001 0x03000001 0X0 0X0 
0X0 0X0 0X0 0X0 0X0 0X0 0X0 0X0 0X0 0X0  0X0 0X0 0X0 0X0 0X0 0X0 0X0 0X0 0X0 0X0  0X0 0X0 0X0 0X0 0X0 0X0 0X0 0X0 0X0 0X0  0X0 0X0 0X0 0X0 0X0 0X0 0X0 0X0 0X0 0X0  0X0 0X0 0X0 0X0 0X0 0X0 0X0 0X0 0X0 0X0

0X0 0X0 0X0 0X0 0X0 0X0 0X0 0X0 0X0 0X0  0X0 0X0 0X0 0X0 0X0 0X0 0X0 0X0 0X0 0X0  0X0 0X0 0X0 0X0 0X0 0X0 0X0 0X0 0X0 0X0  0X0 0X0 0X0 0X0 0X0 0X0 0X0 0X0 0X0 0X0  0X0 0X0 0X0 0X0 0X0 0X0 0X0 0X0 0X0 0X0
0X2 0X2 0X0 0X0 0X0 0X0 0X0 0X2 0X2 0X0  0X0 0X0 0X1 0X1 0X1 0X1 0X101 0X201 0X0 0X0  0X0 0X0 0X2 0X202 0X2 0X102 0X2 0X2 0X0 0X0  0X0 0X0 0X1 0X1 0X0 0X0 0X0 0X0 0X0 0X0  0X0 0X0 0X2 0X2 0X2 0X2 0X0 0X0 0X0 0X0 
0X2 0X2 0X0 0X0 0X0 0X0 0X0 0X2 0X2 0X0  0X0 0X0 0X1 0X1 0X1 0X1 0X101 0X1 0X0 0X0  0X0 0X0 0X2 0X2 0X0 0X0 0X0 0X2 0X2 0X0  0X0 0X0 0X1 0X1 0X0 0X0 0X0 0X0 0X0 0X0  0X0 0X0 0X02000002 0X02000002 0X2 0X2 0X2 0X0 0X0 0X0 
0X2 0X2 0X0 0X0 0X0 0X0 0X0 0X2 0X2 0X0  0X0 0X0 0X1 0X1 0X0 0X0 0X1 0X1 0X0 0X0  0X0 0X0 0X2 0X2 0X0 0X0 0X0 0X0 0X2 0X0  0X0 0X0 0X1 0X1 0X0 0X0 0X0 0X0 0X0 0X0  0X0 0X0 0X02000102 0X02000202 0X0 0X0 0X2 0X2 0X0 0X0 
0X0 0X2 0X2 0X0 0X0 0X0 0X2 0X2 0X0 0X0  0X0 0X0 0X1 0X1 0X0 0X0 0X1 0X1 0X0 0X0  0X0 0X0 0X2 0X2 0X0 0X0 0X0 0X0 0X2 0X0  0X0 0X0 0X1 0X1 0X0 0X0 0X0 0X0 0X0 0X0  0X0 0X0 0X02000002 0X2 0X0 0X0 0X2 0X2 0X2 0X0 
0X0 0X2 0X2 0X0 0X0 0X0 0X2 0X102 0X0 0X0  0X0 0X0 0X1 0X1 0X0 0X0 0X1 0X1 0X0 0X0  0X0 0X0 0X2 0X2 0X2 0X2 0X2 0X2 0X0 0X0  0X0 0X0 0X1 0X1 0X0 0X0 0X0 0X0 0X0 0X0  0X0 0X0 0X0200002 0X2 0X0 0X0 0X2 0X2 0X2 0X0 
0X0 0X2 0X2 0X0 0X2 0X0 0X2 0X202 0X0 0X0  0X0 0X0 0X1 0X1 0X0 0X0 0X1 0X1 0X0 0X0  0X0 0X0 0X2 0X2 0X0 0X0 0X0 0X2 0X2 0X0  0X0 0X0 0X1 0X1 0X0 0X0 0X0 0X0 0X0 0X0  0X0 0X0 0X2 0X2 0X0 0X0 0X2 0X2 0X0 0X0 
0X0 0X0 0X2 0X2 0X0 0X2 0X2 0X0 0X0 0X0  0X0 0X0 0X1 0X1 0X1 0X1 0X1 0X1 0X0 0X0  0X0 0X0 0X2 0X2 0X0 0X0 0X0 0X0 0X2 0X0  0X0 0X0 0X1 0X1 0X1 0X1 0X1 0X1 0X0 0X0  0X0 0X0 0X2 0X2 0X2 0X2 0X2 0X0 0X0 0X0 
0X0 0X0 0X2 0X2 0X0 0X2 0X2 0X0 0X0 0X0  0X0 0X0 0X1 0X1 0X1 0X1 0X1 0X1 0X0 0X0  0X0 0X0 0X2 0X2 0X0 0X0 0X0 0X0 0X2 0X2  0X0 0X0 0X1 0X1 0X1 0X1 0X1 0X1 0X0 0X0  0X0 0X0 0X2 0X2 0X2 0X2 0X0 0X0 0X0 0X0 
0X0 0X0 0X0 0X0 0X0 0X0 0X0 0X0 0X0 0X0  0X0 0X0 0X0 0X0 0X0 0X0 0X0 0X0 0X0 0X0  0X0 0X0 0X0 0X0 0X0 0X0 0X0 0X0 0X0 0X0  0X0 0X0 0X0 0X0 0X0 0X0 0X0 0X0 0X0 0X0  0X0 0X0 0X0 0X0 0X0 0X0 0X0 0X0 0X0 0X0

