# Blender v2.64 (sub 0) OBJ File: ''
# www.blender.org
mtllib pine_tree.mtl
o pine_tree
v 3.300000 0.000000 0.000000
v 1.650000 0.000000 -2.857900
v 0.001000 95.264000 -0.001784
v 0.002100 95.264099 0.000016
v -1.650000 0.000000 -2.857900
v -0.001000 95.264099 -0.001784
v -3.300000 0.000000 0.000000
v -0.002100 95.264099 0.000016
v -1.650000 -0.000000 2.857900
v -0.001000 95.264099 0.001816
v 1.650000 -0.000000 2.857900
v 0.001000 95.264099 0.001816
v -2.214500 98.963097 1.707616
v -2.214500 87.917198 1.707614
v 2.214500 87.917198 -1.707586
v 2.214500 98.963097 -1.707584
v -44.919498 8.599603 -15.515499
v -34.299500 6.806101 -8.828899
v -29.098101 11.037903 -18.320898
v -39.249298 12.787204 -24.712297
v -22.685200 8.116400 -1.516199
v -17.974199 12.324902 -11.316998
v -10.600700 15.116999 6.092503
v -7.290100 18.534300 -4.589997
v -2.249500 28.787798 11.350505
v 0.000000 30.476900 0.000005
v -22.786699 6.806104 -27.113998
v -33.406799 8.599606 -33.800598
v -11.172500 8.116403 -19.801397
v 0.912100 15.117002 -12.192597
v 9.263200 28.787802 -6.934595
v 1.707600 96.682297 2.214516
v 1.707600 85.636398 2.214514
v -1.707600 85.636398 -2.214486
v -1.707600 96.682297 -2.214484
v -2.770000 72.708504 -7.996788
v -3.646700 80.170700 -1.334187
v 0.394400 81.465500 -2.997187
v 1.184900 74.737602 -9.004288
v -4.084200 89.636398 1.990115
v 0.000000 90.000000 0.000015
v 3.867800 80.170700 -0.345287
v 4.744500 72.708504 -7.007988
v 3.430300 89.636398 2.978914
v 8.008500 72.708504 -2.735988
v 1.349600 80.170700 -3.641087
v 2.995500 81.465500 0.407113
v 8.999200 74.737602 1.223112
v -1.972700 89.636398 -4.092585
v 0.328900 80.170700 3.869213
v 6.987800 72.708504 4.774212
v -2.993500 89.636398 3.417614
v 2.702000 72.708504 8.020111
v 3.635300 80.170700 1.365113
v -0.419800 81.465500 2.993713
v -1.261300 74.737602 8.994013
v 4.100900 89.636398 -1.955285
v -3.870600 80.170700 0.312513
v -4.803800 72.708504 6.967512
v -3.404900 89.636398 -3.007885
v -8.031400 72.708504 2.668012
v -1.380500 80.170700 3.629513
v -2.991900 81.465500 -0.432487
v -8.988500 74.737602 -1.299388
v 1.937900 89.636398 4.109215
v -0.296100 80.170700 -3.871787
v -6.947000 72.708504 -4.833288
v 3.022400 89.636398 -3.392086
v -20.739300 55.648201 8.166610
v -6.104200 60.686699 6.466010
v -8.879900 63.858799 1.031810
v -21.656099 59.460300 2.516410
v 4.067700 72.417000 5.284112
v 0.000000 74.099197 0.000012
v -7.424300 60.686699 -4.893990
v -22.059401 55.648201 -3.193491
v 2.747700 72.417000 -6.075988
v 8.254500 55.648197 20.704510
v 6.491900 60.686699 6.076710
v 1.069500 63.858799 8.875510
v 2.608300 59.460297 21.645210
v 5.266800 72.417000 -4.090088
v -4.862500 60.686699 7.445010
v -3.099800 55.648197 22.072710
v -6.087600 72.417000 -2.721888
v 20.669300 55.648201 -8.342291
v 6.049200 60.686699 -6.517590
v 8.870900 63.858799 -1.107090
v 21.634001 59.460300 -2.700090
v -4.112400 72.417000 -5.249388
v 7.465500 60.686699 4.830910
v 22.085699 55.648201 3.006209
v -2.696000 72.417000 6.099112
v -7.663600 57.325603 -18.757891
v -5.948400 61.905998 -5.473990
v -1.040700 64.789803 -8.060089
v -2.538000 60.791103 -19.656691
v -4.756300 72.569901 3.758712
v 4.362900 61.905998 -6.805390
v 2.647700 57.325603 -20.089291
v 5.555000 72.569901 2.427412
v -18.230499 46.334896 17.461407
v -3.929600 51.261002 9.424008
v -8.937400 54.836300 5.023109
v -21.421900 50.535896 12.039609
v 6.308200 63.729401 3.670110
v 0.000000 65.721100 0.000011
v -10.093200 51.261002 -1.542792
v -24.394100 46.334900 6.494607
v 0.144600 63.729401 -7.296690
v -22.054800 46.334904 -12.281492
v -10.163200 51.261002 -0.980792
v -7.431700 54.836300 -7.062391
v -17.812901 50.535904 -16.927692
v -1.650200 63.729401 7.109110
v -1.497200 51.261002 -10.100091
v -13.388800 46.334904 -21.400793
v 7.015900 63.729401 -2.010089
v 5.243900 46.334904 -24.693192
v -2.054800 51.261002 -10.001492
v 4.561400 54.836300 -9.181591
v 10.933000 50.535904 -22.007193
v -7.279900 63.729401 0.516010
v 9.211600 51.261002 -4.404391
v 16.510300 46.334904 -19.096092
v 3.986600 63.729401 6.113111
v 25.142599 46.334900 -2.258592
v 8.953300 51.261002 -4.908391
v 10.117600 54.836300 1.656009
v 24.250700 50.535900 3.969208
v -2.636400 63.729401 -6.805290
v 6.921300 51.261002 7.506608
v 23.110600 46.334900 10.156407
v -4.668500 63.729401 5.609711
v 9.560900 46.334896 23.363308
v 7.326800 51.261002 7.111309
v 1.396200 54.836300 10.156709
v 3.346500 50.535896 24.344408
v 5.727500 63.729401 -4.523190
v -5.136200 51.261002 8.824509
v -2.902100 46.334896 25.076508
v -6.735500 63.729401 -2.809989
v 27.162500 39.484196 14.876806
v 13.173800 41.687000 2.448707
v 9.857000 45.982201 8.757308
v 22.068899 44.059196 19.606808
v 1.882600 52.950699 -7.582791
v 0.000000 55.815201 0.000009
v 3.982800 41.686996 12.793807
v 17.971500 39.484196 25.221907
v -7.308400 52.950699 2.762408
v -6.220300 39.484196 30.338505
v 1.538400 41.686996 13.310806
v -5.467100 45.982197 11.998407
v -12.240300 44.059196 26.863308
v 7.801000 52.950699 -0.433291
v -11.054200 41.687000 7.573007
v -18.812901 39.484196 24.600706
v -4.791600 52.950699 -6.171092
v -30.825199 39.484200 2.987506
v -12.268000 41.687000 5.389107
v -13.076200 45.982201 -1.692292
v -29.276400 44.059200 -3.788793
v 2.710800 52.950699 7.327609
v -10.491900 41.687000 -8.334594
v -29.049101 39.484200 -10.736194
v 4.486900 52.950699 -6.396091
v -11.930500 39.484203 -28.579393
v -8.762100 41.687000 -10.137593
v -2.232600 45.982204 -12.994892
v -4.998500 44.059204 -29.094292
v -6.204700 52.950699 4.748009
v 4.876200 41.687004 -12.480693
v 1.707900 39.484203 -30.922495
v 7.433600 52.950699 2.404909
v 23.800200 39.484203 -19.815895
v 7.108500 41.687000 -11.358394
v 11.761600 45.982201 -5.959492
v 26.333099 44.059204 -13.342793
v -6.364400 52.950699 -4.531791
v 13.363200 41.687000 0.985607
v 30.054800 39.484200 -7.471894
v -0.109700 52.950699 7.812209
v 10.857100 30.231806 -36.638298
v 3.397900 29.873703 -23.601095
v 11.388600 34.880405 -19.905094
v 17.974600 35.196606 -31.416195
v -3.672200 34.674400 -11.243895
v 5.146100 39.119099 -8.994393
v -9.500600 44.054901 -1.056993
v 0.000000 47.401501 0.000008
v 18.624300 29.873701 -14.889395
v 26.083401 30.231804 -27.926594
v 11.554100 34.674400 -2.532194
v 5.725800 44.054901 7.654707
v 37.181099 30.231802 -8.820895
v 22.160900 29.873701 -8.800796
v 22.932800 34.880402 -0.030594
v 36.194801 35.196602 -0.048294
v 7.924000 34.674400 -8.781795
v 10.362500 39.119099 -0.013794
v -3.812300 44.054901 -8.766092
v 22.184299 29.873697 8.741605
v 37.204498 30.231798 8.721505
v 7.947400 34.674400 8.760606
v -3.788900 44.054901 8.776308
v 26.157900 30.231796 27.856806
v 18.664000 29.873697 14.839604
v 11.441800 34.880398 19.874605
v 18.058500 35.196598 31.368105
v 11.560900 34.674400 2.501306
v 5.170100 39.119099 8.980607
v 5.705300 44.054901 -7.669893
v 3.460900 29.873695 23.591906
v 10.954900 30.231794 36.609104
v -3.642200 34.674400 11.253606
v -9.497700 44.054901 1.082407
v -11.139900 30.231794 36.553303
v -3.580200 29.873695 23.574106
v -11.542100 34.880398 19.816505
v -18.216900 35.196598 31.276306
v 3.585200 34.674400 11.271906
v -5.215500 39.119099 8.954407
v 9.492100 44.054901 1.130407
v -18.738800 29.873697 14.745005
v -26.298500 30.231796 27.724106
v -11.573400 34.674400 2.442806
v -5.666400 44.054901 -7.698693
v -37.248100 30.231798 8.533205
v -22.228201 29.873697 8.629305
v -22.932400 34.880402 -0.146594
v -36.194099 35.196602 -0.231394
v -7.991700 34.674400 8.720305
v -10.362300 39.119099 -0.066294
v 3.744400 44.054901 8.795307
v -22.116100 29.873701 -8.912795
v -37.136002 30.231802 -9.008795
v -7.879500 34.674400 -8.821795
v 3.856600 44.054901 -8.746693
v -25.941900 30.231804 -28.058094
v -18.548700 29.873701 -14.983396
v -11.287800 34.880405 -19.962494
v -17.815500 35.196606 -31.506695
v -11.541200 34.674400 -2.590594
v -5.100600 39.119099 -9.020293
v -5.764400 44.054901 7.625607
v -3.278500 29.873703 -23.617994
v -10.671600 30.231806 -36.692696
v 3.729100 34.674400 -11.225194
v 9.505800 44.054901 -1.008993
v -11.605300 15.853408 -44.210495
v -11.198500 15.883504 -26.035498
v -0.612100 21.916103 -27.346697
v -0.971300 21.889608 -43.394196
v -10.816500 22.129501 -8.966796
v -0.274800 27.431002 -12.276095
v -10.505300 33.838100 4.936806
v 0.000000 37.769001 0.000006
v 10.022500 15.883505 -26.510498
v 9.615700 15.853408 -44.685497
v 10.404500 22.129501 -9.441796
v 10.715700 33.838100 4.461806
v 32.567501 15.853405 -32.071995
v 17.006599 15.883504 -22.672197
v 23.413401 21.916101 -14.143196
v 37.152802 21.889605 -22.442596
v 2.392900 22.129501 -13.844696
v 10.510400 27.431002 -6.348896
v -9.510900 33.838100 -6.653994
v 27.981701 15.883501 -4.503498
v 43.542599 15.853402 -13.903197
v 13.368000 22.129499 4.324104
v 1.464200 33.838100 11.514806
v 44.027401 15.853398 12.281803
v 28.129200 15.883499 3.464503
v 23.920900 21.916098 13.266704
v 37.958199 21.889597 21.051804
v 13.198700 22.129499 -4.815996
v 10.738200 27.430998 5.955504
v 1.036900 33.838100 -11.561094
v 17.834299 15.883496 22.027102
v 33.732498 15.853395 30.844402
v 2.903800 22.129498 13.746604
v -9.258100 33.838100 7.001506
v 11.263300 15.853393 44.298904
v 10.997000 15.883496 26.121302
v 0.400700 21.916096 27.350603
v 0.635800 21.889593 43.400402
v 10.746900 22.129498 9.050204
v 0.179900 27.430998 12.277804
v 10.543200 33.838100 -4.855394
v -10.227100 15.883495 26.432201
v -9.960800 15.853393 44.609905
v -10.477200 22.129498 9.361104
v -10.680900 33.838100 -4.544494
v -32.814400 15.853395 31.819302
v -17.181299 15.883496 22.540102
v -23.521999 21.916098 13.961803
v -37.325199 21.889597 22.154804
v -2.499800 22.129498 13.825804
v -10.559100 27.430998 6.267504
v 9.459200 33.838100 6.727306
v -28.015600 15.883499 4.287003
v -43.648701 15.853398 13.566203
v -13.334200 22.129499 -4.427296
v -1.375100 33.838100 -11.525694
v -43.931198 15.853402 -12.621697
v -28.101601 15.883501 -3.681797
v -23.817699 21.916101 -13.451196
v -37.794300 21.889605 -21.344597
v -13.235600 22.129499 4.713904
v -10.691900 27.431002 -6.038296
v -1.126200 33.838100 11.552706
v -17.663500 15.883504 -22.164299
v -33.493099 15.853405 -31.104198
v -2.797500 22.129501 -13.768597
v 9.311900 33.838100 -6.929794
v -20.644400 8.599607 -42.805401
v -17.905199 6.806105 -30.558199
v -7.505100 11.037906 -33.556400
v -10.123300 12.787208 -45.262794
v -14.909600 8.116403 -17.164497
v -4.635900 12.324903 -20.728098
v -11.792800 15.117001 -3.228398
v -1.880300 18.534302 -8.407097
v -9.638800 28.787798 6.402205
v 3.181400 6.806106 -35.274300
v 0.442300 8.599607 -47.521500
v 6.177000 8.116404 -21.880598
v 9.293900 15.117001 -7.944598
v 11.447800 28.787800 1.686005
v 15.824700 8.599607 -44.811501
v 9.065100 6.806106 -34.237801
v 18.521000 11.037905 -28.971199
v 24.982201 12.787207 -39.077995
v 1.672600 8.116404 -22.674198
v 11.440600 12.325003 -17.895699
v -6.019300 15.117002 -10.642397
v 4.640200 18.534302 -7.258297
v -11.334800 28.787800 -2.327695
v 27.270399 6.806104 -22.599298
v 34.029999 8.599606 -33.173000
v 19.877899 8.116402 -11.035699
v 12.186100 15.117000 0.996102
v 6.870600 28.787798 9.310804
v 42.946701 8.599603 -20.348799
v 30.680901 6.806103 -17.694199
v 33.607300 11.037901 -7.273598
v 45.331501 12.787202 -9.811098
v 17.266899 8.116403 -14.790999
v 20.759501 12.325001 -4.492998
v 3.309600 15.117002 -11.770197
v 8.419800 18.534300 -1.822297
v -6.335600 28.787802 -9.682695
v 35.251598 6.806099 3.424501
v 47.517399 8.599600 0.769801
v 21.837500 8.116399 6.327702
v 7.880300 15.116998 9.348403
v -1.764900 28.787798 11.435905
v 44.701401 8.599597 16.133202
v 34.174500 6.806098 9.300801
v 28.842800 11.037897 18.720303
v 38.904900 12.787196 25.251001
v 22.662201 8.116400 1.828801
v 17.816500 12.324998 11.563702
v 10.683600 15.117001 -5.945797
v 7.226200 18.534300 4.690103
v 2.405800 28.787802 -11.318396
v 22.410801 6.806096 27.425503
v 32.937599 8.599594 34.257900
v 10.898400 8.116397 19.953503
v -1.080100 15.116998 12.178903
v -9.357900 28.787798 6.806205
v 20.052299 8.599593 43.085899
v 17.482300 6.806095 30.802101
v 7.041800 11.037894 33.656601
v 9.498400 12.787192 45.398003
v 14.671600 8.116397 17.368402
v 4.349800 12.324996 20.790003
v 11.747100 15.116999 3.390702
v 1.764200 18.534298 8.432203
v 9.726200 28.787802 -6.268695
v -3.667400 6.806094 35.227100
v -1.097300 8.599592 47.510899
v -6.478000 8.116396 21.793402
v -9.402500 15.116999 7.815702
v -11.423500 28.787800 -1.843695
v -16.441000 8.599592 44.589100
v -9.536200 6.806094 34.109600
v -18.918600 11.037895 28.713102
v -25.518499 12.787193 38.729904
v -1.985000 8.116396 22.649002
v -11.686200 12.324997 17.736301
v 5.872000 15.116998 10.724402
v -4.739800 18.534298 7.193703
v 11.301600 28.787800 2.483805
v -27.579300 6.806096 22.221203
v -34.484100 8.599594 32.700699
v -20.028099 8.116398 10.760701
v -12.171200 15.117000 -1.163998
v -6.741600 28.787802 -9.404595
v -43.223099 8.599597 19.754902
v -30.921900 6.806097 17.269503
v -33.704399 11.037899 6.809602
v -45.462399 12.787198 9.185202
v -17.469101 8.116398 14.551501
v -20.819500 12.324999 4.206402
v -3.471600 15.116998 11.723503
v -8.444200 18.534300 1.706103
v 6.201500 28.787798 9.769105
v -35.201000 6.806100 -3.910099
v -47.502201 8.599600 -1.424799
v -21.748199 8.116401 -6.628098
v -7.750700 15.117002 -9.456098
v 1.922400 28.787802 -11.410495
v -6.852900 62.872894 15.730210
v 1.232200 69.542900 6.427611
v -4.202700 72.040497 4.835612
v -11.260800 66.217697 12.956711
v 6.046400 81.481796 0.888413
v 0.000000 82.462997 0.000013
v -6.536600 69.542900 -0.324389
v -14.621700 62.872898 8.978210
v -1.722400 81.481796 -5.863586
v 15.759200 62.872898 6.786110
v 6.422300 69.542900 -1.259489
v 4.853400 72.040497 4.182112
v 13.004300 66.217697 11.205811
v 0.862800 81.481796 -6.050086
v -0.296700 69.542900 6.537911
v 9.040200 62.872894 14.583410
v -5.856200 81.481796 1.747313
v 6.719200 62.872902 -15.787789
v -1.286700 69.542900 -6.416889
v 4.161500 72.040497 -4.871088
v 11.150500 66.217697 -13.051689
v -6.053700 81.481796 -0.837087
v 6.539100 69.542900 0.268911
v 14.545000 62.872898 -9.101990
v 1.772100 81.481796 5.848713
v -14.378300 64.653801 -6.047390
v -5.828500 70.717400 1.194512
v -4.444300 72.987999 -3.764388
v -11.908100 67.694603 -10.086389
v -0.737600 81.570999 5.506513
v 0.219300 70.717400 -5.945589
v -8.330500 64.653801 -13.187490
v 5.310100 81.570999 -1.633487
v 6.891400 67.063797 -0.504489
v 1.711200 75.178802 -3.360188
v 1.894000 76.242500 1.067912
v 6.564600 68.925903 3.642711
v -0.355100 84.939796 -4.499286
v 0.031100 85.043098 0.040914
v -1.947900 75.178802 3.277312
v 3.232300 67.063797 6.133011
v -4.014200 84.939796 2.138314
v 0.547400 67.063797 6.903511
v 3.425000 75.178802 1.735512
v -1.003800 76.242500 1.899512
v -3.598400 68.925903 6.559112
v 4.572900 84.939796 -0.325986
v -3.196900 75.178802 -1.951688
v -6.074600 67.063797 3.216311
v -2.049100 84.939796 -4.013186
v -6.833700 67.063797 0.528111
v -1.677900 75.178802 3.427712
v -1.823100 76.242500 -1.001788
v -6.471700 68.925903 -3.616089
v 0.378700 84.939796 4.584214
v 2.037400 75.178802 -3.178588
v -3.118400 67.063797 -6.078089
v 4.093900 84.939796 -2.021986
v -0.427000 67.063797 -6.825789
v -3.348400 75.178802 -1.682388
v 1.081700 76.242500 -1.808788
v 3.715700 68.925903 -6.446188
v -4.513700 84.939796 0.369314
v 3.242000 75.178802 2.060912
v 6.163400 67.063797 -3.082589
v 2.076700 84.939796 4.112514
v -0.530100 48.569202 -20.298292
v -4.127100 55.099400 -6.627791
v 2.025200 58.035099 -7.537691
v 5.165400 52.334305 -19.471792
v -6.411400 67.822701 2.053511
v 0.031100 69.142303 0.040911
v 6.932900 55.099400 -3.717591
v 10.530000 48.569202 -17.388092
v 4.648700 67.822701 4.963711
v -20.305599 48.569199 0.688408
v -6.620000 55.099400 4.227409
v -7.556000 58.035099 -1.920991
v -19.503300 52.334301 -5.010491
v 2.071000 67.822701 6.474811
v -3.756700 55.099400 -6.844891
v -17.442400 48.569199 -10.383992
v 4.934200 67.822701 -4.597489
v 0.764800 48.569195 20.374607
v 4.245700 55.099400 6.674109
v -1.898700 58.035099 7.636209
v -4.937500 52.334297 19.596508
v 6.456200 67.822701 -2.026189
v -6.838700 55.099400 3.857909
v -10.319600 48.569195 17.558407
v -4.628100 67.822701 -4.842489
v 18.513300 50.439400 -0.704492
v 6.045000 56.375999 -3.816091
v 6.943300 59.044800 1.765910
v 17.827900 53.862301 4.482308
v -1.872900 67.942596 -5.792089
v 3.527500 56.375999 6.271409
v 15.995800 50.439400 9.383009
v -4.390400 67.942596 4.295411
v -9.292000 38.961502 -21.191093
v -7.100600 45.552101 -5.534092
v -1.226900 48.880699 -8.947292
v -3.139900 43.127205 -22.615593
v -5.659600 59.164600 4.761909
v 0.031100 60.764198 0.040910
v 5.358100 45.552101 -7.277792
v 3.166800 38.961502 -22.934793
v 6.799200 59.164600 3.018209
v 17.577200 38.961502 -15.119893
v 3.259300 45.552101 -8.415993
v 8.250500 48.880699 -3.807592
v 20.749800 43.127201 -9.659993
v -6.156100 59.164600 -4.007590
v 8.593800 45.552101 2.977207
v 22.911699 38.961498 -3.726794
v -0.821600 59.164600 7.385610
v 19.685801 38.961494 12.345807
v 9.063600 45.552101 0.636207
v 6.128900 48.880699 6.763008
v 15.401900 43.127197 16.985308
v 2.078500 59.164600 -7.063890
v -0.254000 45.552101 9.088608
v 10.368200 38.961494 20.798206
v -7.239100 59.164600 1.388410
v -5.941800 38.961494 22.447306
v 2.121500 45.552101 8.848408
v -4.597800 48.880699 7.847608
v -11.636900 43.127197 19.719208
v 7.423800 59.164600 -0.094090
v -8.699500 45.552101 2.432207
v -16.762800 38.961494 16.031105
v -3.397200 59.164600 -6.510291
v -23.140699 38.961498 0.929606
v -7.770600 45.552101 4.631708
v -8.792400 48.880699 -2.084392
v -22.210199 43.127201 -5.316293
v 2.336700 59.164600 7.066309
v -4.824700 45.552101 -7.598592
v -20.194799 38.961498 -11.300794
v 5.282600 59.164600 -5.164091
v -22.077700 31.502996 19.077606
v -5.697900 35.622700 10.727606
v -10.750500 39.718700 5.537007
v -25.049801 36.122295 12.826406
v 6.652300 48.383099 4.431908
v 0.031100 50.858299 0.040908
v -11.982700 35.622700 -1.601094
v -28.362499 31.502998 6.748905
v 0.367500 48.383099 -7.896792
v -24.671000 31.503002 -15.483195
v -11.868700 35.622700 -2.287794
v -8.395700 39.718700 -8.644593
v -19.571899 36.122303 -20.163994
v -2.215900 48.383099 7.661508
v -1.936800 35.622704 -11.923795
v -14.739100 31.503004 -25.119295
v 7.716100 48.383099 -1.974592
v 7.594500 31.503004 -28.136894
v -1.246900 35.622704 -12.016994
v 5.850700 39.718700 -10.569493
v 13.569100 36.122303 -24.641893
v -7.913200 48.383099 0.137208
v 10.886100 35.622700 -5.362294
v 19.727501 31.503004 -21.482094
v 4.219800 48.383099 6.791908
v 29.186701 31.503000 -1.026795
v 11.178300 35.622700 -4.730394
v 11.884600 39.718700 2.478706
v 27.605700 36.122299 5.711906
v -2.399900 48.383099 -7.522892
v 8.390700 35.622700 8.824105
v 26.399099 31.502998 12.527705
v -5.187500 48.383099 6.031608
v 9.635400 31.502996 27.590006
v 7.872900 35.622700 9.289306
v 1.191200 39.718697 12.086806
v 2.729800 36.122295 28.063005
v 6.544000 48.383099 -4.509192
v -5.901600 35.622700 10.615906
v -4.139100 31.502996 28.916605
v -7.230500 48.383099 -3.182592
v 28.959801 21.532997 21.969704
v 19.563999 22.724897 10.306404
v 13.531600 27.626497 16.799604
v 21.827499 26.574196 27.097704
v 10.990600 28.967400 -0.336095
v 5.961800 33.138302 7.402905
v 4.273600 39.507500 -8.674193
v 0.031100 42.444599 0.040907
v 5.903000 22.724895 21.311504
v 15.298800 21.532995 32.974804
v -2.670500 28.967398 10.669004
v -9.387400 39.507500 2.330906
v -4.588200 21.532995 36.046505
v 0.850600 22.724895 22.091805
v -7.783800 27.626596 20.092003
v -12.586000 26.574194 32.413204
v 5.813400 28.967398 9.358504
v -3.402000 33.138302 8.849206
v 9.701600 39.507500 -0.617594
v -15.494300 22.724897 15.721504
v -20.933100 21.532995 29.676104
v -10.531500 28.967400 2.988205
v -6.643300 39.507500 -6.987894
v -33.496300 21.532999 13.957004
v -18.686001 22.724897 11.727903
v -21.249500 27.626600 3.243804
v -34.326099 26.574200 5.211905
v -5.171900 28.967398 9.694005
v -9.317300 33.138302 1.447905
v 5.415800 39.507500 8.100507
v -21.296801 22.724899 -5.619096
v -36.107101 21.533001 -3.390096
v -7.782800 28.967402 -7.652995
v 2.805000 39.507500 -9.246593
v -28.727301 21.533005 -22.110796
v -19.421900 22.724901 -10.375196
v -13.339500 27.626602 -16.821596
v -21.555599 26.574203 -27.183496
v -10.931000 28.967400 0.333305
v -5.842600 33.138302 -7.366695
v -4.278700 39.507500 8.723006
v -5.676300 22.724903 -21.274296
v -14.981600 21.533007 -33.009895
v 2.814600 28.967402 -10.565895
v 9.467000 39.507500 -2.176193
v 4.928500 21.533007 -35.927895
v -0.618000 22.724903 -22.015696
v 8.000700 27.626604 -19.949196
v 12.897900 26.574205 -32.232895
v -5.679100 28.967402 -9.321095
v 3.532100 33.138302 -8.740594
v -9.644200 39.507500 0.624606
v 15.677100 22.724901 -15.519096
v 21.223600 21.533007 -29.431396
v 10.616100 28.967400 -2.824595
v 6.650900 39.507500 7.121206
v 33.665001 21.533003 -13.615596
v 18.837900 22.724901 -11.501096
v 21.335699 27.626600 -2.997295
v 34.427200 26.574200 -4.864295
v 5.308500 28.967402 -9.571595
v 9.390100 33.138302 -1.293795
v -5.291300 39.507500 -8.059994
v 21.314600 22.724897 5.865604
v 36.141701 21.533001 3.751104
v 7.785200 28.967398 7.795105
v -2.814600 39.507500 9.306706
v 43.087101 6.430999 4.486101
v 26.107300 8.334600 -1.723499
v 24.049299 14.224398 8.824502
v 39.041599 12.543598 14.307202
v 10.762900 16.307001 -7.334997
v 10.501100 21.263599 3.869904
v -1.095300 29.386602 -11.671596
v 0.031100 32.812099 0.040905
v 18.816900 8.334598 18.211601
v 35.796799 6.430996 24.421103
v 3.472500 16.306997 12.600102
v -8.385600 29.386599 8.263505
v 17.607599 6.430994 39.596500
v 14.541300 8.334597 21.778801
v 4.368500 14.224396 25.244402
v 7.075900 12.543593 40.976402
v 11.770200 16.306999 5.677203
v 1.921800 21.263597 11.027604
v 9.628800 29.386602 -6.766095
v -6.377500 8.334597 25.378902
v -3.311200 6.430993 43.196602
v -9.148600 16.306997 9.277303
v -11.290000 29.386600 -3.165995
v -25.526899 6.430995 34.974800
v -11.599700 8.334597 23.446201
v -19.669100 14.224397 16.348303
v -31.966000 12.543595 26.527401
v 0.986000 16.306997 13.028003
v -8.556700 21.263597 7.149603
v 10.712300 29.386600 4.976805
v -25.134800 8.334599 7.095101
v -39.062000 6.430997 18.623701
v -12.549100 16.306999 -3.323097
v -2.822800 29.386602 -11.374295
v -42.989300 6.431001 -4.736899
v -26.058001 8.334600 1.603801
v -23.918600 14.224401 -8.927999
v -38.868000 12.543602 -14.526398
v -10.757400 16.306997 7.333703
v -10.409100 21.263599 -3.868796
v 1.066800 29.386599 11.761805
v -18.613800 8.334603 -18.274399
v -35.545200 6.431004 -24.614998
v -3.313200 16.307001 -12.544497
v 8.511000 29.386602 -8.116395
v -17.239300 6.431007 -39.649399
v -14.310700 8.334604 -21.808397
v -4.111400 14.224403 -25.195297
v -6.697200 12.543607 -40.947796
v -11.664200 16.306999 -5.685897
v -1.774700 21.263601 -10.960096
v -9.619000 29.386599 6.773505
v 6.635300 8.334604 -25.246698
v 3.706700 6.431007 -43.087601
v 9.281800 16.307001 -9.124197
v 11.327000 29.386600 3.335305
v 25.858299 6.431006 -34.694302
v 11.842400 8.334604 -23.273699
v 19.856701 14.224402 -16.113699
v 32.231899 12.543604 -26.197397
v -0.823500 16.307001 -12.953097
v 8.673500 21.263601 -7.001197
v -10.611700 29.386600 -4.977395
v 25.250700 8.334601 -6.818499
v 39.266602 6.431003 -18.239098
v 12.584800 16.306999 3.502103
v 2.796600 29.386599 11.477805
v -11.143600 56.333302 -10.206691
v -5.775900 64.238098 0.045110
v -2.426600 66.478798 -4.652989
v -7.112400 59.578102 -13.602591
v -2.960700 76.869797 5.421912
v 0.031100 77.506104 0.040913
v 3.342700 64.238098 -4.729290
v -2.025000 56.333305 -14.980990
v 6.157900 76.869797 0.647613
v -10.169100 56.333302 11.259009
v 0.059900 64.238098 5.847910
v -4.652400 66.478798 2.518511
v -13.582000 59.578098 7.242209
v 5.424700 76.869797 3.009913
v -4.753100 64.238098 -3.250390
v -14.982100 56.333302 2.160709
v 0.611700 76.869797 -6.088387
v 11.292300 56.333302 10.193410
v 5.837800 64.238098 -0.012490
v 2.528400 66.478798 4.713811
v 7.290100 59.578094 13.623409
v 2.977100 76.869797 -5.365288
v -3.239900 64.238098 4.839011
v 2.214500 56.333298 15.044909
v -6.100700 76.869797 -0.513687
v 9.217100 58.258099 -10.235591
v -0.039900 65.444298 -5.237689
v 4.269500 67.481300 -2.247389
v 12.350600 61.207901 -6.610490
v -4.895000 76.927696 -2.616387
v 4.405600 65.444298 2.996011
v 13.662500 58.258099 -2.001890
v -0.449500 76.927696 5.617312
vt 0.829100 -0.694500
vt 0.885400 -0.694500
vt 0.885400 1.562700
vt 0.829100 1.562700
vt 0.941700 -0.694500
vt 0.941700 1.562700
vt 0.998000 -0.694500
vt 0.998000 1.562700
vt 0.660200 -0.694500
vt 0.716500 -0.694500
vt 0.716500 1.562700
vt 0.660200 1.562700
vt 0.772800 -0.694500
vt 0.772800 1.562700
vt 0.012300 0.991800
vt 0.012300 0.018500
vt 0.629600 0.018500
vt 0.629600 0.991800
vt 0.009900 0.990100
vt 0.009900 0.746300
vt 0.321200 0.746300
vt 0.321200 0.990100
vt 0.009900 0.502500
vt 0.321200 0.502500
vt 0.009900 0.258700
vt 0.321200 0.258700
vt 0.009900 0.014900
vt 0.321200 0.014900
vt 0.632500 0.746300
vt 0.632500 0.990100
vt 0.632500 0.502500
vt 0.632500 0.258700
vt 0.632500 0.014900
vt 0.012300 0.505100
vt 0.321000 0.505100
vt 0.321000 0.991800
vt 0.321000 0.018500
vt 0.629600 0.505100
vt 0.012300 0.667400
vt 0.321000 0.667400
vt 0.012300 0.342900
vt 0.321000 0.342900
vt 0.629600 0.667400
vt 0.629600 0.342900
vn 0.999390 0.034577 0.000000
vn 0.499680 0.034577 -0.865505
vn 0.499161 0.034577 -0.865780
vn 0.999359 0.034577 0.008637
vn -0.499680 0.034577 -0.865505
vn -0.507462 0.034577 -0.860958
vn -0.999390 0.034577 0.000000
vn -0.499680 0.034577 0.865505
vn -0.499557 0.034577 0.865566
vn 0.499680 0.034577 0.865505
vn 0.499557 0.034577 0.865566
vn 0.610614 0.000000 0.791894
vn -0.076540 0.924986 0.372173
vn -0.179693 0.930815 0.318155
vn 0.024232 0.999573 0.015259
vn 0.120884 0.989715 0.076113
vn -0.414502 0.891385 0.183203
vn -0.230537 0.962157 -0.145146
vn -0.708121 0.706046 0.006073
vn -0.545762 0.764214 -0.343608
vn -0.835475 0.542863 -0.084994
vn -0.006104 0.999969 -0.001099
vn 0.209235 0.930815 -0.299570
vn 0.302499 0.924986 -0.229896
vn -0.013947 0.891385 -0.452956
vn -0.300546 0.706046 -0.641194
vn -0.437757 0.542863 -0.716666
vn 0.791894 0.000000 -0.610614
vn -0.462325 0.559709 -0.687704
vn -0.457595 0.425184 -0.780908
vn 0.112094 0.511338 -0.852016
vn 0.096927 0.669179 -0.736717
vn -0.440565 0.279244 -0.853145
vn -0.005097 0.999939 -0.006714
vn 0.644032 0.425184 -0.635945
vn 0.624500 0.559709 -0.544664
vn 0.646290 0.279244 -0.710135
vn 0.689657 0.559679 -0.459426
vn 0.782830 0.425153 -0.454268
vn 0.851527 0.511368 0.115726
vn 0.736290 0.669179 0.100070
vn 0.855007 0.279244 -0.436933
vn 0.633198 0.425184 0.646718
vn 0.542009 0.559709 0.626820
vn 0.707389 0.279244 0.649281
vn 0.456465 0.559709 0.691610
vn 0.450942 0.425184 0.784753
vn -0.119327 0.511338 0.851009
vn -0.103183 0.669179 0.735862
vn 0.433302 0.279244 0.856868
vn -0.649403 0.425184 0.630451
vn -0.629109 0.559709 0.539354
vn -0.652272 0.279244 0.704642
vn -0.693533 0.559709 0.453536
vn -0.786645 0.425184 0.447615
vn -0.850520 0.511338 -0.122929
vn -0.735435 0.669179 -0.106296
vn -0.858699 0.279244 0.429670
vn -0.627674 0.425184 -0.652058
vn -0.536699 0.559709 -0.631397
vn -0.701834 0.279244 -0.655263
vn -0.207434 0.794977 0.570025
vn -0.396252 0.690268 0.605335
vn -0.553697 0.830195 0.064333
vn -0.321390 0.946196 0.037324
vn -0.566118 0.552538 0.611682
vn -0.002686 0.999969 -0.002106
vn -0.524522 0.690268 -0.498337
vn -0.332621 0.794977 -0.507248
vn -0.691305 0.552538 -0.465590
vn 0.570879 0.794977 0.205023
vn 0.607013 0.690268 0.393689
vn 0.066683 0.830195 0.553423
vn 0.038697 0.946196 0.321238
vn 0.614093 0.552538 0.563524
vn -0.496109 0.690268 0.526627
vn -0.505844 0.794977 0.334788
vn -0.462661 0.552538 0.693258
vn 0.202612 0.794977 -0.571764
vn 0.391125 0.690268 -0.608692
vn 0.553148 0.830195 -0.069033
vn 0.321055 0.946196 -0.040071
vn 0.560900 0.552538 -0.616474
vn 0.528733 0.690268 0.493881
vn 0.336924 0.794977 0.504410
vn 0.695212 0.552538 0.459700
vn -0.572619 0.794977 -0.200171
vn -0.610340 0.690268 -0.388531
vn -0.071352 0.830195 -0.552843
vn -0.041414 0.946196 -0.320902
vn -0.618854 0.552538 -0.558275
vn 0.491623 0.690268 -0.530808
vn 0.502976 0.794977 -0.339061
vn 0.456740 0.552538 -0.697165
vn 0.055025 0.804682 0.591113
vn -0.108829 0.707297 0.698447
vn -0.458235 0.850673 0.257546
vn -0.250710 0.957732 0.140904
vn -0.267464 0.576067 0.772362
vn -0.006073 0.999878 0.012238
vn -0.653218 0.707297 -0.270150
vn -0.476333 0.804682 -0.354320
vn -0.798853 0.576067 -0.173040
vn -0.548692 0.804682 0.226600
vn -0.699545 0.707297 0.101627
vn -0.381054 0.850673 -0.362102
vn -0.208472 0.957732 -0.198096
vn -0.816889 0.576067 -0.028230
vn 0.065859 0.707297 -0.703818
vn 0.198370 0.804682 -0.559526
vn -0.069796 0.576067 -0.814386
vn -0.378124 0.804682 -0.457656
vn -0.303079 0.707297 -0.638600
vn 0.233863 0.850673 -0.470779
vn 0.127934 0.957732 -0.257546
vn -0.213507 0.576067 -0.788995
vn 0.692007 0.707297 -0.144261
vn 0.593127 0.804682 0.024842
vn 0.757744 0.576067 -0.306467
vn 0.326029 0.804682 -0.496109
vn 0.521073 0.707297 -0.477645
vn 0.518754 0.850673 0.084902
vn 0.283792 0.957732 0.046449
vn 0.691153 0.576067 -0.436354
vn 0.341594 0.707297 0.618854
vn 0.150853 0.804682 0.574175
vn 0.515976 0.576067 0.633931
vn 0.570116 0.804682 0.165532
vn 0.609912 0.707297 0.357341
vn 0.071566 0.850673 0.520768
vn 0.039155 0.957732 0.284890
vn 0.620502 0.576067 0.532060
vn -0.490860 0.707297 0.508652
vn -0.504288 0.804682 0.313211
vn -0.453932 0.576067 0.679739
vn 0.433576 0.834407 -0.340129
vn 0.598956 0.772454 -0.211005
vn 0.276559 0.929014 0.245705
vn 0.087374 0.993133 0.077639
vn 0.735649 0.673513 -0.071780
vn 0.009522 0.999939 0.001221
vn -0.139012 0.772454 0.619648
vn -0.286721 0.834407 0.470626
vn 0.015320 0.673513 0.738975
vn 0.452712 0.834407 0.314219
vn 0.378002 0.772454 0.510269
vn -0.153386 0.929014 0.336650
vn -0.048463 0.993133 0.106388
vn 0.285195 0.673513 0.681906
vn -0.633106 0.772454 0.049562
vn -0.534196 0.834407 -0.135441
vn -0.701712 0.673513 0.232215
vn -0.166997 0.834407 0.525163
vn -0.376354 0.772454 0.511490
vn -0.366894 0.929014 -0.047456
vn -0.115940 0.993133 -0.014985
vn -0.567705 0.673513 0.473312
vn -0.233741 0.772454 -0.590442
vn -0.027802 0.834407 -0.550401
vn -0.428510 0.673513 -0.602252
vn -0.551073 0.834407 -0.004975
vn -0.599628 0.772454 -0.209082
vn -0.062624 0.929014 -0.364605
vn -0.019776 0.993133 -0.115207
vn -0.619495 0.673513 -0.403211
vn 0.495437 0.772454 -0.397229
vn 0.517808 0.834407 -0.188604
vn 0.449385 0.673513 -0.586840
vn -0.157476 0.834407 -0.528123
vn 0.023286 0.772454 -0.634602
vn 0.329997 0.929014 -0.167211
vn 0.104282 0.993133 -0.052828
vn 0.202948 0.673513 -0.710746
vn 0.525498 0.772454 0.356517
vn 0.332713 0.834407 0.439314
vn 0.693136 0.673513 0.256691
vn -0.439283 0.869045 -0.227454
vn -0.369396 0.856197 -0.361126
vn 0.074526 0.988647 -0.130284
vn -0.011811 0.999695 0.020661
vn -0.227882 0.760094 -0.608509
vn 0.237953 0.877682 -0.415937
vn -0.159459 0.679037 -0.716544
vn 0.000000 0.999969 -0.002045
vn 0.498550 0.856197 0.135441
vn 0.418714 0.869045 0.263436
vn 0.640065 0.760094 -0.111911
vn 0.698538 0.679037 -0.225623
vn -0.021363 0.869045 -0.494217
vn 0.129337 0.856197 -0.500168
vn 0.150121 0.988647 -0.000183
vn -0.023835 0.999695 0.000031
vn 0.414319 0.760094 -0.500534
vn 0.479202 0.877682 -0.000610
vn 0.542070 0.679037 -0.494980
vn 0.130650 0.856197 0.499802
vn -0.020051 0.869045 0.494278
vn 0.415662 0.760094 0.499435
vn 0.543382 0.679037 0.493515
vn 0.418012 0.869045 -0.264534
vn 0.498184 0.856197 -0.136784
vn 0.074892 0.988647 0.130100
vn -0.011872 0.999695 -0.020631
vn 0.640370 0.760094 0.110202
vn 0.239082 0.877682 0.415296
vn 0.699118 0.679037 0.223762
vn -0.368450 0.856197 0.362133
vn -0.438673 0.869045 0.228645
vn -0.226234 0.760094 0.609119
vn -0.157537 0.679037 0.716971
vn 0.437513 0.869045 0.230842
vn 0.366619 0.856197 0.363994
vn -0.075533 0.988647 0.129704
vn 0.011994 0.999695 -0.020569
vn 0.223151 0.760094 0.610248
vn -0.241188 0.877682 0.414075
vn 0.153935 0.679037 0.717734
vn -0.497482 0.856197 -0.139286
vn -0.416669 0.869045 -0.266671
vn -0.640919 0.760094 0.106937
vn -0.700247 0.679037 0.220222
vn 0.017548 0.869045 0.494369
vn -0.133183 0.856197 0.499130
vn -0.150121 0.988647 -0.000946
vn 0.023804 0.999695 0.000122
vn -0.418195 0.760094 0.497330
vn -0.479202 0.877682 -0.003052
vn -0.545885 0.679037 0.490768
vn -0.126804 0.856197 -0.500809
vn 0.023865 0.869045 -0.494125
vn -0.411786 0.760094 -0.502640
vn -0.539567 0.679037 -0.497726
vn -0.420026 0.869045 0.261299
vn -0.499222 0.856197 0.132908
vn -0.073885 0.988647 -0.130680
vn 0.011719 0.999695 0.020722
vn -0.639485 0.760094 -0.115146
vn -0.235878 0.877682 -0.417127
vn -0.697378 0.679037 -0.229163
vn 0.371227 0.856197 -0.359264
vn 0.440443 0.869045 -0.225227
vn 0.230934 0.760094 -0.607349
vn 0.163091 0.679037 -0.715720
vn -0.494156 0.869289 0.009613
vn -0.503250 0.852596 -0.140538
vn -0.003906 0.984497 -0.175207
vn -0.000031 0.999969 -0.001648
vn -0.509568 0.749260 -0.422926
vn -0.011200 0.865169 -0.501297
vn -0.506668 0.664998 -0.548662
vn -0.001099 0.999969 -0.001831
vn 0.496445 0.852596 -0.162938
vn 0.494095 0.869289 -0.012482
vn 0.490127 0.749260 -0.445326
vn 0.481613 0.664998 -0.570788
vn -0.254311 0.869289 -0.423811
vn -0.128574 0.852596 -0.506455
vn 0.149998 0.984497 -0.090609
vn 0.001404 0.999969 -0.000855
vn 0.113163 0.749260 -0.652486
vn 0.429182 0.865169 -0.259255
vn 0.223640 0.664998 -0.712546
vn 0.388440 0.852596 0.349467
vn 0.256783 0.869289 0.422315
vn 0.630207 0.749260 0.203436
vn 0.734764 0.664998 0.133580
vn 0.240974 0.869289 -0.431532
vn 0.375225 0.852596 -0.363628
vn 0.153264 0.984497 0.084994
vn 0.001434 0.999969 0.000793
vn 0.622242 0.749260 -0.226630
vn 0.438490 0.865169 0.243171
vn 0.729331 0.664998 -0.160680
vn -0.109745 0.852596 0.510849
vn -0.238441 0.869289 0.432936
vn 0.137242 0.749260 0.647847
vn 0.249886 0.664998 0.703787
vn 0.494217 0.869289 -0.005799
vn 0.502152 0.852596 0.144444
vn 0.002564 0.984497 0.175237
vn 0.000000 0.999969 0.001648
vn 0.506302 0.749260 0.426862
vn 0.007324 0.865169 0.501358
vn 0.502396 0.664998 0.552568
vn -0.497696 0.852596 0.159093
vn -0.494186 0.869289 0.008667
vn -0.493576 0.749260 0.441511
vn -0.486007 0.664998 0.567034
vn 0.251045 0.869289 0.425764
vn 0.124668 0.852596 0.507431
vn -0.150700 0.984497 0.089450
vn -0.001404 0.999969 0.000824
vn -0.118198 0.749260 0.651601
vn -0.431166 0.865169 0.255928
vn -0.229163 0.664998 0.710807
vn -0.385723 0.852596 -0.352458
vn -0.253517 0.869289 -0.424299
vn -0.628620 0.749260 -0.208289
vn -0.733726 0.664998 -0.139256
vn -0.244301 0.869289 0.429670
vn -0.378033 0.852596 0.360698
vn -0.152593 0.984497 -0.086184
vn -0.001434 0.999969 -0.000793
vn -0.623981 0.749260 0.221809
vn -0.436598 0.865169 -0.246559
vn -0.730552 0.664998 0.155034
vn 0.113681 0.852596 -0.509995
vn 0.241798 0.869289 -0.431074
vn -0.132237 0.749260 -0.648885
vn -0.244423 0.664998 -0.705679
vn -0.318003 0.924986 0.207923
vn -0.352397 0.930815 0.096683
vn 0.006226 0.999573 0.027955
vn 0.031159 0.989715 0.139409
vn -0.422071 0.891385 -0.164983
vn -0.059450 0.962157 -0.265847
vn -0.503311 0.706046 -0.498123
vn -0.140751 0.764214 -0.629383
vn -0.528398 0.542863 -0.652699
vn 0.359996 0.930815 -0.062624
vn 0.376293 0.924986 0.052644
vn 0.311563 0.891385 -0.329081
vn 0.243141 0.706046 -0.665090
vn 0.199988 0.542863 -0.815607
vn -0.371624 0.924986 -0.079104
vn -0.316935 0.930815 -0.181890
vn -0.015412 0.999573 0.024110
vn -0.076937 0.989715 0.120334
vn -0.180334 0.891385 -0.415754
vn 0.146733 0.962157 -0.229530
vn -0.001221 0.706046 -0.708152
vn 0.347362 0.764214 -0.543382
vn 0.090762 0.542863 -0.834864
vn 0.298135 0.930815 0.211280
vn 0.227790 0.924986 0.304086
vn 0.453047 0.891385 -0.010804
vn 0.643239 0.706046 -0.296121
vn 0.719657 0.542863 -0.432813
vn -0.205725 0.924986 -0.319437
vn -0.094241 0.930815 -0.353069
vn -0.027985 0.999573 0.006043
vn -0.139622 0.989715 0.030213
vn 0.167913 0.891385 -0.420942
vn 0.266274 0.962157 -0.057619
vn 0.501602 0.706046 -0.499863
vn 0.630329 0.764214 -0.136418
vn 0.656331 0.542863 -0.523881
vn 0.060152 0.930815 0.360424
vn -0.055208 0.924986 0.375927
vn 0.326945 0.891385 0.313822
vn 0.663411 0.706046 0.247719
vn 0.814234 0.542863 0.205603
vn 0.081668 0.924986 -0.371075
vn 0.184088 0.930815 -0.315653
vn -0.024018 0.999573 -0.015564
vn -0.119816 0.989715 -0.077761
vn 0.416974 0.891385 -0.177465
vn 0.228523 0.962157 0.148320
vn 0.708152 0.706046 0.003632
vn 0.540971 0.764214 0.351115
vn 0.834223 0.542863 0.096500
vn -0.213355 0.930815 0.296670
vn -0.305643 0.924986 0.225684
vn 0.007691 0.891385 0.453108
vn 0.291696 0.706046 0.645283
vn 0.427839 0.542863 0.722617
vn 0.320841 0.924986 -0.203528
vn 0.353710 0.930815 -0.091800
vn -0.005860 0.999573 -0.028016
vn -0.029237 0.989715 -0.139805
vn 0.419752 0.891385 0.170812
vn 0.055788 0.962157 0.266640
vn 0.496414 0.706046 0.505020
vn 0.132054 0.764214 0.631275
vn 0.519364 0.542863 0.659932
vn -0.360851 0.930815 0.057680
vn -0.375530 0.924986 -0.057802
vn -0.316080 0.891385 0.324747
vn -0.252297 0.706046 0.661672
vn -0.211219 0.542863 0.812799
vn 0.370495 0.924986 0.084231
vn 0.314402 0.930815 0.186254
vn 0.015748 0.999573 -0.023896
vn 0.078585 0.989715 -0.119266
vn 0.174596 0.891385 0.418195
vn -0.149876 0.962157 0.227485
vn -0.008515 0.706046 0.708090
vn -0.354839 0.764214 0.538530
vn -0.102268 0.542863 0.833522
vn -0.295206 0.930815 -0.215369
vn -0.223579 0.924986 -0.307199
vn -0.453169 0.891385 0.004578
vn -0.647267 0.706046 0.287240
vn -0.725547 0.542863 0.422864
vn 0.201300 0.924986 0.322245
vn 0.089358 0.930815 0.354320
vn 0.028077 0.999573 -0.005646
vn 0.140019 0.989715 -0.028260
vn -0.173681 0.891385 0.418561
vn -0.267037 0.962157 0.053926
vn -0.508438 0.706046 0.492904
vn -0.632160 0.764214 0.127720
vn -0.663503 0.542863 0.514786
vn -0.055177 0.930815 -0.361217
vn 0.060396 0.924986 -0.375134
vn -0.322581 0.891385 -0.318308
vn -0.659932 0.706046 -0.256844
vn -0.811304 0.542863 -0.216834
vn 0.146947 0.738914 0.657552
vn 0.044404 0.603900 0.795801
vn -0.450880 0.726310 0.518784
vn -0.312204 0.879452 0.359233
vn -0.060244 0.439985 0.895962
vn -0.004852 0.999969 0.000366
vn -0.794214 0.603900 0.066897
vn -0.671590 0.738914 -0.053865
vn -0.878811 0.439985 0.184515
vn 0.656911 0.738914 -0.149754
vn 0.795587 0.603900 -0.047792
vn 0.520676 0.726310 0.448683
vn 0.360546 0.879452 0.310678
vn 0.896207 0.439985 0.056429
vn 0.070284 0.603900 0.793939
vn -0.051027 0.738914 0.671834
vn 0.188238 0.439985 0.878018
vn -0.152532 0.738914 -0.656270
vn -0.051149 0.603900 -0.795404
vn 0.446455 0.726310 -0.522599
vn 0.309153 0.879452 -0.361858
vn 0.052644 0.439985 -0.896451
vn 0.793634 0.603900 -0.073641
vn 0.672018 0.738914 0.048189
vn 0.877224 0.439985 -0.191961
vn -0.655629 0.738914 0.155309
vn -0.795160 0.603900 0.054537
vn -0.524491 0.726310 -0.444227
vn -0.363170 0.879452 -0.307596
vn -0.896664 0.439985 -0.048830
vn -0.076998 0.603900 -0.793298
vn 0.045351 0.738914 -0.672231
vn -0.195685 0.439985 -0.876400
vn 0.856502 0.492660 -0.153691
vn 0.928983 0.349254 -0.122257
vn 0.794702 0.420057 0.438093
vn 0.707663 0.589038 0.390118
vn 0.976562 0.196509 -0.087527
vn 0.011902 0.999908 -0.003357
vn 0.392560 0.349254 0.850795
vn 0.327280 0.492660 0.806299
vn 0.447340 0.196509 0.872494
vn 0.150060 0.492660 0.857173
vn 0.118290 0.349254 0.929502
vn -0.441450 0.420057 0.792840
vn -0.393109 0.589038 0.706015
vn 0.083377 0.196509 0.976928
vn -0.852443 0.349254 0.388958
vn -0.807672 0.492660 0.323862
vn -0.874386 0.196509 0.443648
vn -0.857784 0.492660 0.146428
vn -0.929991 0.349254 0.114353
vn -0.790979 0.420057 -0.444807
vn -0.704337 0.589038 -0.396100
vn -0.977264 0.196509 0.079226
vn -0.385327 0.349254 -0.854091
vn -0.320414 0.492660 -0.809046
vn -0.439924 0.196509 -0.876247
vn -0.142766 0.492660 -0.858394
vn -0.110416 0.349254 -0.930479
vn 0.448195 0.420057 -0.789087
vn 0.399091 0.589038 -0.702658
vn -0.075076 0.196509 -0.977599
vn 0.855739 0.349254 -0.381695
vn 0.810419 0.492660 -0.316996
vn 0.878109 0.196509 -0.436171
vn -0.434736 0.762719 -0.478744
vn -0.401837 0.638844 -0.656026
vn 0.162847 0.768334 -0.618976
vn 0.106693 0.907804 -0.405560
vn -0.349712 0.484359 -0.801904
vn 0.003632 0.999969 -0.002136
vn 0.672689 0.638844 -0.373272
vn 0.614063 0.762719 -0.202765
vn 0.699118 0.484359 -0.525925
vn -0.476882 0.762719 0.436781
vn -0.654317 0.638844 0.404614
vn -0.619648 0.768334 -0.160222
vn -0.406018 0.907804 -0.104984
vn -0.800409 0.484359 0.353099
vn -0.376110 0.638844 -0.671102
vn -0.205359 0.762719 -0.613208
vn -0.528886 0.484359 -0.696860
vn 0.438795 0.762719 0.475021
vn 0.407392 0.638844 0.652577
vn -0.157598 0.768334 0.620319
vn -0.103244 0.907804 0.406446
vn 0.356517 0.484359 0.798914
vn -0.669485 0.638844 0.378979
vn -0.612323 0.762719 0.207953
vn -0.694601 0.484359 0.531846
vn 0.473159 0.762719 -0.440809
vn 0.650838 0.638844 -0.410169
vn 0.620991 0.768334 0.154973
vn 0.406873 0.907804 0.101535
vn 0.797388 0.484359 -0.359905
vn 0.381817 0.638844 0.667867
vn 0.210547 0.762719 0.611438
vn 0.534776 0.484359 0.692343
vn -0.581835 0.775506 -0.245003
vn -0.620563 0.658498 -0.425733
vn -0.084597 0.791955 -0.604663
vn -0.053316 0.923002 -0.381054
vn -0.629566 0.509964 -0.586108
vn -0.011322 0.999847 -0.012482
vn 0.479843 0.658467 -0.579760
vn 0.492233 0.775506 -0.395306
vn 0.444472 0.509964 -0.736442
vn 0.062807 0.775506 -0.628193
vn 0.224158 0.658467 -0.718406
vn 0.552934 0.791955 -0.258889
vn 0.348460 0.923002 -0.163152
vn 0.374767 0.509964 -0.774255
vn 0.695334 0.658498 0.287851
vn 0.522721 0.775506 0.354015
vn 0.834651 0.509964 0.207953
vn 0.618824 0.775506 -0.124882
vn 0.752556 0.658498 0.002716
vn 0.410199 0.791955 0.452193
vn 0.258522 0.923002 0.284982
vn 0.850276 0.509964 0.130192
vn -0.070376 0.658498 0.749260
vn -0.184423 0.775506 0.603778
vn 0.046968 0.509964 0.858882
vn 0.301553 0.775506 0.554643
vn 0.218940 0.658498 0.719993
vn -0.311380 0.791955 0.525163
vn -0.196234 0.923002 0.330943
vn 0.125858 0.509964 0.850917
vn -0.736778 0.658498 0.153294
vn -0.631306 0.775506 0.001495
vn -0.807001 0.509964 0.297769
vn -0.441267 0.775506 0.451491
vn -0.623615 0.658498 0.421216
vn -0.593554 0.791955 -0.142949
vn -0.374065 0.923002 -0.090091
vn -0.776147 0.509964 0.370830
vn -0.363414 0.658498 -0.658986
vn -0.187292 0.775506 -0.602893
vn -0.522172 0.509964 -0.683554
vn 0.082583 0.819849 0.566546
vn -0.091189 0.736625 0.670064
vn -0.413160 0.885952 0.210608
vn -0.194800 0.975799 0.099277
vn -0.260659 0.618152 0.741539
vn -0.005676 0.999908 0.010376
vn -0.595843 0.736625 -0.319834
vn -0.409955 0.819849 -0.399670
vn -0.753227 0.618152 -0.224677
vn -0.517106 0.819849 0.245735
vn -0.667226 0.736625 0.110111
vn -0.322916 0.885952 -0.332835
vn -0.152226 0.975799 -0.156926
vn -0.785424 0.618152 -0.030793
vn 0.130222 0.736625 -0.663594
vn 0.261269 0.819849 -0.509445
vn -0.007019 0.618152 -0.786004
vn -0.387097 0.819849 -0.421827
vn -0.301675 0.736625 -0.605243
vn 0.222999 0.885952 -0.406598
vn 0.105136 0.975799 -0.191687
vn -0.201788 0.618152 -0.759667
vn 0.672536 0.736625 -0.070894
vn 0.563799 0.819849 0.099704
vn 0.749077 0.618152 -0.238105
vn 0.289163 0.819849 -0.494156
vn 0.489608 0.736625 -0.466506
vn 0.454237 0.885952 0.093387
vn 0.214148 0.975799 0.044038
vn 0.666585 0.618152 -0.416517
vn 0.265755 0.736625 0.621845
vn 0.070681 0.819849 0.568163
vn 0.448103 0.618152 0.645772
vn 0.557390 0.819849 0.130863
vn 0.589953 0.736625 0.330546
vn 0.044435 0.885952 0.461592
vn 0.020936 0.975799 0.217627
vn 0.594317 0.618152 0.514420
vn -0.516037 0.736625 0.437056
vn -0.522141 0.819849 0.234840
vn -0.485214 0.618152 0.618397
vn 0.428144 0.866543 -0.256355
vn 0.525834 0.838221 -0.144230
vn 0.157598 0.967925 0.195624
vn 0.049745 0.996826 0.061769
vn 0.697470 0.713279 0.068789
vn 0.355754 0.823603 0.441633
vn 0.767479 0.619495 0.164830
vn 0.002350 0.999969 0.000916
vn -0.252876 0.838252 0.483077
vn -0.341624 0.866543 0.363750
vn -0.081240 0.713279 0.696127
vn -0.002319 0.619495 0.784967
vn 0.435469 0.866543 0.243721
vn 0.386853 0.838221 0.384259
vn -0.091220 0.967925 0.234046
vn -0.028779 0.996826 0.073885
vn 0.287484 0.713279 0.639180
vn -0.205939 0.823603 0.528398
vn 0.239051 0.619495 0.747703
vn -0.544847 0.838221 0.021119
vn -0.485549 0.866543 -0.115207
vn -0.644215 0.713279 0.276040
vn -0.681967 0.619495 0.388714
vn 0.005341 0.866543 0.499008
vn -0.140721 0.838221 0.526811
vn -0.248421 0.967925 0.037385
vn -0.078433 0.996826 0.011780
vn -0.411237 0.713279 0.567522
vn -0.560808 0.823603 0.084384
vn -0.529466 0.619495 0.579516
vn -0.289529 0.838221 -0.462050
vn -0.141728 0.866543 -0.478500
vn -0.560076 0.713279 -0.421308
vn -0.676595 0.619495 -0.397992
vn -0.430128 0.866543 0.253029
vn -0.526933 0.838221 0.140172
vn -0.156072 0.967925 -0.196844
vn -0.049287 0.996826 -0.062136
vn -0.696921 0.713279 -0.074190
vn -0.352336 0.823603 -0.444349
vn -0.766167 0.619495 -0.170751
vn 0.256600 0.838221 -0.481124
vn 0.344432 0.866543 -0.361126
vn 0.086612 0.713279 -0.695486
vn 0.008393 0.619495 -0.784936
vn -0.433576 0.866543 -0.247078
vn -0.383862 0.838221 -0.387249
vn 0.093020 0.967925 -0.233345
vn 0.029359 0.996826 -0.073672
vn -0.282540 0.713279 -0.641377
vn 0.209998 0.823603 -0.526780
vn -0.233253 0.619495 -0.749504
vn 0.545000 0.838221 -0.016907
vn 0.484664 0.866543 0.118961
vn 0.646321 0.713279 -0.271035
vn 0.684957 0.619495 -0.383435
vn -0.001495 0.866543 -0.499039
vn 0.144780 0.838221 -0.525681
vn 0.248695 0.967925 -0.035463
vn 0.078524 0.996826 -0.011170
vn 0.415632 0.713279 -0.564318
vn 0.561418 0.823603 -0.080050
vn 0.533952 0.619495 -0.575396
vn 0.285958 0.838221 0.464278
vn 0.138035 0.866543 0.479568
vn 0.556810 0.713279 0.425642
vn 0.673513 0.619495 0.403211
vn 0.255226 0.864528 -0.432936
vn 0.396039 0.832423 -0.387524
vn 0.259011 0.961180 0.094729
vn 0.098331 0.994476 0.035951
vn 0.649892 0.700522 -0.294687
vn 0.552141 0.808893 0.201910
vn 0.757134 0.603748 -0.249367
vn 0.002625 0.999969 -0.000427
vn 0.052583 0.832423 0.551622
vn -0.084262 0.864528 0.495437
vn 0.306436 0.700522 0.644459
vn 0.417615 0.603748 0.679006
vn 0.502518 0.864528 0.005860
vn 0.533250 0.832423 0.150578
vn 0.046754 0.961211 0.271798
vn 0.017731 0.994476 0.103183
vn 0.579089 0.700522 0.416974
vn 0.099704 0.808893 0.579394
vn 0.593158 0.603748 0.532548
vn -0.452223 0.832423 0.320200
vn -0.471664 0.864528 0.173528
vn -0.406384 0.700522 0.586566
vn -0.381024 0.603748 0.700186
vn 0.245033 0.864528 0.438765
vn 0.134800 0.832423 0.537461
vn -0.212439 0.961180 0.175848
vn -0.080660 0.994476 0.066744
vn -0.073366 0.700522 0.709830
vn -0.452895 0.808893 0.374889
vn -0.166601 0.603748 0.779534
vn -0.502823 0.832423 -0.232826
vn -0.385266 0.864528 -0.322672
vn -0.711020 0.700522 -0.060457
vn -0.796930 0.603748 0.018036
vn -0.258583 0.864528 0.430921
vn -0.399030 0.832423 0.384442
vn -0.258278 0.961180 -0.096713
vn -0.098056 0.994476 -0.036714
vn -0.652150 0.700522 0.289651
vn -0.550584 0.808893 -0.206183
vn -0.759056 0.603748 0.243507
vn -0.048311 0.832423 -0.551988
vn 0.088076 0.864528 -0.494797
vn -0.301462 0.700522 -0.646779
vn -0.412366 0.603748 -0.682211
vn -0.502457 0.864528 -0.009735
vn -0.532060 0.832423 -0.154698
vn -0.044649 0.961211 -0.272164
vn -0.016938 0.994476 -0.103305
vn -0.575854 0.700522 -0.421430
vn -0.095218 0.808893 -0.580157
vn -0.589038 0.603748 -0.537095
vn 0.454695 0.832423 -0.316691
vn 0.472976 0.864528 -0.169866
vn 0.410901 0.700522 -0.583422
vn 0.386425 0.603748 -0.697226
vn -0.241646 0.864528 -0.440657
vn -0.130650 0.832423 -0.538469
vn 0.213813 0.961211 -0.174200
vn 0.081149 0.994476 -0.066134
vn 0.078860 0.700522 -0.709220
vn 0.455763 0.808893 -0.371380
vn 0.172613 0.603748 -0.778222
vn 0.500992 0.832423 0.236702
vn 0.382763 0.864528 0.325663
vn 0.710532 0.700522 0.065981
vn 0.797052 0.603748 -0.011902
vn -0.700217 0.693777 -0.168310
vn -0.784722 0.541765 -0.301035
vn -0.351848 0.651601 -0.671987
vn -0.261635 0.825709 -0.499680
vn -0.831690 0.363872 -0.419355
vn 0.001801 0.999969 -0.005951
vn 0.199622 0.541765 -0.816431
vn 0.260567 0.693777 -0.671377
vn 0.129124 0.363872 -0.922452
vn -0.165349 0.693777 0.700919
vn -0.297708 0.541795 0.786004
vn -0.670492 0.651601 0.354686
vn -0.498581 0.825709 0.263741
vn -0.415845 0.363872 0.833461
vn -0.817286 0.541765 -0.196142
vn -0.672475 0.693777 -0.257729
vn -0.922971 0.363872 -0.125187
vn 0.701621 0.693777 0.162358
vn 0.787255 0.541765 0.294382
vn 0.357524 0.651601 0.668996
vn 0.265847 0.825709 0.497452
vn 0.835200 0.363842 0.412305
vn -0.192694 0.541765 0.818110
vn -0.254860 0.693777 0.673544
vn -0.121281 0.363872 0.923490
vn 0.159368 0.693777 -0.702292
vn 0.291025 0.541765 -0.788507
vn 0.667470 0.651601 -0.360363
vn 0.496323 0.825709 -0.267953
vn 0.408765 0.363872 -0.836940
vn 0.818934 0.541765 0.189215
vn 0.674642 0.693777 0.251991
vn 0.924009 0.363872 0.117374
usemtl 
s 1
f 1/1/1 2/2/2 3/3/3
f 1/1/1 3/3/3 4/4/4
f 2/2/2 5/5/5 6/6/6
f 2/2/2 6/6/6 3/3/3
f 5/5/5 7/7/7 8/8/7
f 5/5/5 8/8/7 6/6/6
f 7/9/7 9/10/8 10/11/9
f 7/9/7 10/11/9 8/12/7
f 9/10/8 11/13/10 12/14/11
f 9/10/8 12/14/11 10/11/9
f 11/13/10 1/1/1 4/4/4
f 11/13/10 4/4/4 12/14/11
f 13/15/12 14/16/12 15/17/12
f 13/15/12 15/17/12 16/18/12
f 17/19/13 18/20/14 19/21/15
f 17/19/13 19/21/15 20/22/16
f 18/20/14 21/23/17 22/24/18
f 18/20/14 22/24/18 19/21/15
f 21/23/17 23/25/19 24/26/20
f 21/23/17 24/26/20 22/24/18
f 23/25/19 25/27/21 26/28/22
f 23/25/19 26/28/22 24/26/20
f 19/21/15 27/29/23 28/30/24
f 19/21/15 28/30/24 20/22/16
f 22/24/18 29/31/25 27/29/23
f 22/24/18 27/29/23 19/21/15
f 24/26/20 30/32/26 29/31/25
f 24/26/20 29/31/25 22/24/18
f 26/28/22 31/33/27 30/32/26
f 26/28/22 30/32/26 24/26/20
f 32/15/28 33/16/28 34/17/28
f 32/15/28 34/17/28 35/18/28
f 36/15/29 37/34/30 38/35/31
f 36/15/29 38/35/31 39/36/32
f 37/34/30 40/16/33 41/37/34
f 37/34/30 41/37/34 38/35/31
f 39/36/32 38/35/31 42/38/35
f 39/36/32 42/38/35 43/18/36
f 41/37/34 44/17/37 42/38/35
f 41/37/34 42/38/35 38/35/31
f 45/15/38 46/34/39 47/35/40
f 45/15/38 47/35/40 48/36/41
f 46/34/39 49/16/42 41/37/34
f 46/34/39 41/37/34 47/35/40
f 48/36/41 47/35/40 50/38/43
f 48/36/41 50/38/43 51/18/44
f 41/37/34 52/17/45 50/38/43
f 41/37/34 50/38/43 47/35/40
f 53/15/46 54/34/47 55/35/48
f 53/15/46 55/35/48 56/36/49
f 54/34/47 57/16/50 41/37/34
f 54/34/47 41/37/34 55/35/48
f 56/36/49 55/35/48 58/38/51
f 56/36/49 58/38/51 59/18/52
f 41/37/34 60/17/53 58/38/51
f 41/37/34 58/38/51 55/35/48
f 61/15/54 62/34/55 63/35/56
f 61/15/54 63/35/56 64/36/57
f 62/34/55 65/16/58 41/37/34
f 62/34/55 41/37/34 63/35/56
f 64/36/57 63/35/56 66/38/59
f 64/36/57 66/38/59 67/18/60
f 41/37/34 68/17/61 66/38/59
f 41/37/34 66/38/59 63/35/56
f 69/15/62 70/34/63 71/35/64
f 69/15/62 71/35/64 72/36/65
f 70/34/63 73/16/66 74/37/67
f 70/34/63 74/37/67 71/35/64
f 72/36/65 71/35/64 75/38/68
f 72/36/65 75/38/68 76/18/69
f 74/37/67 77/17/70 75/38/68
f 74/37/67 75/38/68 71/35/64
f 78/15/71 79/34/72 80/35/73
f 78/15/71 80/35/73 81/36/74
f 79/34/72 82/16/75 74/37/67
f 79/34/72 74/37/67 80/35/73
f 81/36/74 80/35/73 83/38/76
f 81/36/74 83/38/76 84/18/77
f 74/37/67 85/17/78 83/38/76
f 74/37/67 83/38/76 80/35/73
f 86/15/79 87/34/80 88/35/81
f 86/15/79 88/35/81 89/36/82
f 87/34/80 90/16/83 74/37/67
f 87/34/80 74/37/67 88/35/81
f 89/36/82 88/35/81 91/38/84
f 89/36/82 91/38/84 92/18/85
f 74/37/67 93/17/86 91/38/84
f 74/37/67 91/38/84 88/35/81
f 94/15/87 95/34/88 96/35/89
f 94/15/87 96/35/89 97/36/90
f 95/34/88 98/16/91 74/37/67
f 95/34/88 74/37/67 96/35/89
f 97/36/90 96/35/89 99/38/92
f 97/36/90 99/38/92 100/18/93
f 74/37/67 101/17/94 99/38/92
f 74/37/67 99/38/92 96/35/89
f 102/15/95 103/34/96 104/35/97
f 102/15/95 104/35/97 105/36/98
f 103/34/96 106/16/99 107/37/100
f 103/34/96 107/37/100 104/35/97
f 105/36/98 104/35/97 108/38/101
f 105/36/98 108/38/101 109/18/102
f 107/37/100 110/17/103 108/38/101
f 107/37/100 108/38/101 104/35/97
f 111/15/104 112/34/105 113/35/106
f 111/15/104 113/35/106 114/36/107
f 112/34/105 115/16/108 107/37/100
f 112/34/105 107/37/100 113/35/106
f 114/36/107 113/35/106 116/38/109
f 114/36/107 116/38/109 117/18/110
f 107/37/100 118/17/111 116/38/109
f 107/37/100 116/38/109 113/35/106
f 119/15/112 120/34/113 121/35/114
f 119/15/112 121/35/114 122/36/115
f 120/34/113 123/16/116 107/37/100
f 120/34/113 107/37/100 121/35/114
f 122/36/115 121/35/114 124/38/117
f 122/36/115 124/38/117 125/18/118
f 107/37/100 126/17/119 124/38/117
f 107/37/100 124/38/117 121/35/114
f 127/15/120 128/34/121 129/35/122
f 127/15/120 129/35/122 130/36/123
f 128/34/121 131/16/124 107/37/100
f 128/34/121 107/37/100 129/35/122
f 130/36/123 129/35/122 132/38/125
f 130/36/123 132/38/125 133/18/126
f 107/37/100 134/17/127 132/38/125
f 107/37/100 132/38/125 129/35/122
f 135/15/128 136/34/129 137/35/130
f 135/15/128 137/35/130 138/36/131
f 136/34/129 139/16/132 107/37/100
f 136/34/129 107/37/100 137/35/130
f 138/36/131 137/35/130 140/38/133
f 138/36/131 140/38/133 141/18/134
f 107/37/100 142/17/135 140/38/133
f 107/37/100 140/38/133 137/35/130
f 143/15/136 144/34/137 145/35/138
f 143/15/136 145/35/138 146/36/139
f 144/34/137 147/16/140 148/37/141
f 144/34/137 148/37/141 145/35/138
f 146/36/139 145/35/138 149/38/142
f 146/36/139 149/38/142 150/18/143
f 148/37/141 151/17/144 149/38/142
f 148/37/141 149/38/142 145/35/138
f 152/15/145 153/34/146 154/35/147
f 152/15/145 154/35/147 155/36/148
f 153/34/146 156/16/149 148/37/141
f 153/34/146 148/37/141 154/35/147
f 155/36/148 154/35/147 157/38/150
f 155/36/148 157/38/150 158/18/151
f 148/37/141 159/17/152 157/38/150
f 148/37/141 157/38/150 154/35/147
f 160/15/153 161/34/154 162/35/155
f 160/15/153 162/35/155 163/36/156
f 161/34/154 164/16/157 148/37/141
f 161/34/154 148/37/141 162/35/155
f 163/36/156 162/35/155 165/38/158
f 163/36/156 165/38/158 166/18/159
f 148/37/141 167/17/160 165/38/158
f 148/37/141 165/38/158 162/35/155
f 168/15/161 169/34/162 170/35/163
f 168/15/161 170/35/163 171/36/164
f 169/34/162 172/16/165 148/37/141
f 169/34/162 148/37/141 170/35/163
f 171/36/164 170/35/163 173/38/166
f 171/36/164 173/38/166 174/18/167
f 148/37/141 175/17/168 173/38/166
f 148/37/141 173/38/166 170/35/163
f 176/15/169 177/34/170 178/35/171
f 176/15/169 178/35/171 179/36/172
f 177/34/170 180/16/173 148/37/141
f 177/34/170 148/37/141 178/35/171
f 179/36/172 178/35/171 181/38/174
f 179/36/172 181/38/174 182/18/175
f 148/37/141 183/17/176 181/38/174
f 148/37/141 181/38/174 178/35/171
f 184/15/177 185/39/178 186/40/179
f 184/15/177 186/40/179 187/36/180
f 185/39/178 188/41/181 189/42/182
f 185/39/178 189/42/182 186/40/179
f 188/41/181 190/16/183 191/37/184
f 188/41/181 191/37/184 189/42/182
f 186/40/179 192/43/185 193/18/186
f 186/40/179 193/18/186 187/36/180
f 189/42/182 194/44/187 192/43/185
f 189/42/182 192/43/185 186/40/179
f 195/17/188 194/44/187 189/42/182
f 195/17/188 189/42/182 191/37/184
f 196/15/189 197/39/190 198/40/191
f 196/15/189 198/40/191 199/36/192
f 197/39/190 200/41/193 201/42/194
f 197/39/190 201/42/194 198/40/191
f 200/41/193 202/16/195 191/37/184
f 200/41/193 191/37/184 201/42/194
f 198/40/191 203/43/196 204/18/197
f 198/40/191 204/18/197 199/36/192
f 201/42/194 205/44/198 203/43/196
f 201/42/194 203/43/196 198/40/191
f 206/17/199 205/44/198 201/42/194
f 206/17/199 201/42/194 191/37/184
f 207/15/200 208/39/201 209/40/202
f 207/15/200 209/40/202 210/36/203
f 208/39/201 211/41/204 212/42/205
f 208/39/201 212/42/205 209/40/202
f 211/41/204 213/16/206 191/37/184
f 211/41/204 191/37/184 212/42/205
f 209/40/202 214/43/207 215/18/208
f 209/40/202 215/18/208 210/36/203
f 212/42/205 216/44/209 214/43/207
f 212/42/205 214/43/207 209/40/202
f 217/17/210 216/44/209 212/42/205
f 217/17/210 212/42/205 191/37/184
f 218/15/211 219/39/212 220/40/213
f 218/15/211 220/40/213 221/36/214
f 219/39/212 222/41/215 223/42/216
f 219/39/212 223/42/216 220/40/213
f 222/41/215 224/16/217 191/37/184
f 222/41/215 191/37/184 223/42/216
f 220/40/213 225/43/218 226/18/219
f 220/40/213 226/18/219 221/36/214
f 223/42/216 227/44/220 225/43/218
f 223/42/216 225/43/218 220/40/213
f 228/17/221 227/44/220 223/42/216
f 228/17/221 223/42/216 191/37/184
f 229/15/222 230/39/223 231/40/224
f 229/15/222 231/40/224 232/36/225
f 230/39/223 233/41/226 234/42/227
f 230/39/223 234/42/227 231/40/224
f 233/41/226 235/16/228 191/37/184
f 233/41/226 191/37/184 234/42/227
f 231/40/224 236/43/229 237/18/230
f 231/40/224 237/18/230 232/36/225
f 234/42/227 238/44/231 236/43/229
f 234/42/227 236/43/229 231/40/224
f 239/17/232 238/44/231 234/42/227
f 239/17/232 234/42/227 191/37/184
f 240/15/233 241/39/234 242/40/235
f 240/15/233 242/40/235 243/36/236
f 241/39/234 244/41/237 245/42/238
f 241/39/234 245/42/238 242/40/235
f 244/41/237 246/16/239 191/37/184
f 244/41/237 191/37/184 245/42/238
f 242/40/235 247/43/240 248/18/241
f 242/40/235 248/18/241 243/36/236
f 245/42/238 249/44/242 247/43/240
f 245/42/238 247/43/240 242/40/235
f 250/17/243 249/44/242 245/42/238
f 250/17/243 245/42/238 191/37/184
f 251/15/244 252/39/245 253/40/246
f 251/15/244 253/40/246 254/36/247
f 252/39/245 255/41/248 256/42/249
f 252/39/245 256/42/249 253/40/246
f 255/41/248 257/16/250 258/37/251
f 255/41/248 258/37/251 256/42/249
f 253/40/246 259/43/252 260/18/253
f 253/40/246 260/18/253 254/36/247
f 256/42/249 261/44/254 259/43/252
f 256/42/249 259/43/252 253/40/246
f 262/17/255 261/44/254 256/42/249
f 262/17/255 256/42/249 258/37/251
f 263/15/256 264/39/257 265/40/258
f 263/15/256 265/40/258 266/36/259
f 264/39/257 267/41/260 268/42/261
f 264/39/257 268/42/261 265/40/258
f 267/41/260 269/16/262 258/37/251
f 267/41/260 258/37/251 268/42/261
f 265/40/258 270/43/263 271/18/264
f 265/40/258 271/18/264 266/36/259
f 268/42/261 272/44/265 270/43/263
f 268/42/261 270/43/263 265/40/258
f 273/17/266 272/44/265 268/42/261
f 273/17/266 268/42/261 258/37/251
f 274/15/267 275/39/268 276/40/269
f 274/15/267 276/40/269 277/36/270
f 275/39/268 278/41/271 279/42/272
f 275/39/268 279/42/272 276/40/269
f 278/41/271 280/16/273 258/37/251
f 278/41/271 258/37/251 279/42/272
f 276/40/269 281/43/274 282/18/275
f 276/40/269 282/18/275 277/36/270
f 279/42/272 283/44/276 281/43/274
f 279/42/272 281/43/274 276/40/269
f 284/17/277 283/44/276 279/42/272
f 284/17/277 279/42/272 258/37/251
f 285/15/278 286/39/279 287/40/280
f 285/15/278 287/40/280 288/36/281
f 286/39/279 289/41/282 290/42/283
f 286/39/279 290/42/283 287/40/280
f 289/41/282 291/16/284 258/37/251
f 289/41/282 258/37/251 290/42/283
f 287/40/280 292/43/285 293/18/286
f 287/40/280 293/18/286 288/36/281
f 290/42/283 294/44/287 292/43/285
f 290/42/283 292/43/285 287/40/280
f 295/17/288 294/44/287 290/42/283
f 295/17/288 290/42/283 258/37/251
f 296/15/289 297/39/290 298/40/291
f 296/15/289 298/40/291 299/36/292
f 297/39/290 300/41/293 301/42/294
f 297/39/290 301/42/294 298/40/291
f 300/41/293 302/16/295 258/37/251
f 300/41/293 258/37/251 301/42/294
f 298/40/291 303/43/296 304/18/297
f 298/40/291 304/18/297 299/36/292
f 301/42/294 305/44/298 303/43/296
f 301/42/294 303/43/296 298/40/291
f 306/17/299 305/44/298 301/42/294
f 306/17/299 301/42/294 258/37/251
f 307/15/300 308/39/301 309/40/302
f 307/15/300 309/40/302 310/36/303
f 308/39/301 311/41/304 312/42/305
f 308/39/301 312/42/305 309/40/302
f 311/41/304 313/16/306 258/37/251
f 311/41/304 258/37/251 312/42/305
f 309/40/302 314/43/307 315/18/308
f 309/40/302 315/18/308 310/36/303
f 312/42/305 316/44/309 314/43/307
f 312/42/305 314/43/307 309/40/302
f 317/17/310 316/44/309 312/42/305
f 317/17/310 312/42/305 258/37/251
f 318/19/311 319/20/312 320/21/313
f 318/19/311 320/21/313 321/22/314
f 319/20/312 322/23/315 323/24/316
f 319/20/312 323/24/316 320/21/313
f 322/23/315 324/25/317 325/26/318
f 322/23/315 325/26/318 323/24/316
f 324/25/317 326/27/319 26/28/22
f 324/25/317 26/28/22 325/26/318
f 320/21/313 327/29/320 328/30/321
f 320/21/313 328/30/321 321/22/314
f 323/24/316 329/31/322 327/29/320
f 323/24/316 327/29/320 320/21/313
f 325/26/318 330/32/323 329/31/322
f 325/26/318 329/31/322 323/24/316
f 26/28/22 331/33/324 330/32/323
f 26/28/22 330/32/323 325/26/318
f 332/19/325 333/20/326 334/21/327
f 332/19/325 334/21/327 335/22/328
f 333/20/326 336/23/329 337/24/330
f 333/20/326 337/24/330 334/21/327
f 336/23/329 338/25/331 339/26/332
f 336/23/329 339/26/332 337/24/330
f 338/25/331 340/27/333 26/28/22
f 338/25/331 26/28/22 339/26/332
f 334/21/327 341/29/334 342/30/335
f 334/21/327 342/30/335 335/22/328
f 337/24/330 343/31/336 341/29/334
f 337/24/330 341/29/334 334/21/327
f 339/26/332 344/32/337 343/31/336
f 339/26/332 343/31/336 337/24/330
f 26/28/22 345/33/338 344/32/337
f 26/28/22 344/32/337 339/26/332
f 346/19/339 347/20/340 348/21/341
f 346/19/339 348/21/341 349/22/342
f 347/20/340 350/23/343 351/24/344
f 347/20/340 351/24/344 348/21/341
f 350/23/343 352/25/345 353/26/346
f 350/23/343 353/26/346 351/24/344
f 352/25/345 354/27/347 26/28/22
f 352/25/345 26/28/22 353/26/346
f 348/21/341 355/29/348 356/30/349
f 348/21/341 356/30/349 349/22/342
f 351/24/344 357/31/350 355/29/348
f 351/24/344 355/29/348 348/21/341
f 353/26/346 358/32/351 357/31/350
f 353/26/346 357/31/350 351/24/344
f 26/28/22 359/33/352 358/32/351
f 26/28/22 358/32/351 353/26/346
f 360/19/353 361/20/354 362/21/355
f 360/19/353 362/21/355 363/22/356
f 361/20/354 364/23/357 365/24/358
f 361/20/354 365/24/358 362/21/355
f 364/23/357 366/25/359 367/26/360
f 364/23/357 367/26/360 365/24/358
f 366/25/359 368/27/361 26/28/22
f 366/25/359 26/28/22 367/26/360
f 362/21/355 369/29/362 370/30/363
f 362/21/355 370/30/363 363/22/356
f 365/24/358 371/31/364 369/29/362
f 365/24/358 369/29/362 362/21/355
f 367/26/360 372/32/365 371/31/364
f 367/26/360 371/31/364 365/24/358
f 26/28/22 373/33/366 372/32/365
f 26/28/22 372/32/365 367/26/360
f 374/19/367 375/20/368 376/21/369
f 374/19/367 376/21/369 377/22/370
f 375/20/368 378/23/371 379/24/372
f 375/20/368 379/24/372 376/21/369
f 378/23/371 380/25/373 381/26/374
f 378/23/371 381/26/374 379/24/372
f 380/25/373 382/27/375 26/28/22
f 380/25/373 26/28/22 381/26/374
f 376/21/369 383/29/376 384/30/377
f 376/21/369 384/30/377 377/22/370
f 379/24/372 385/31/378 383/29/376
f 379/24/372 383/29/376 376/21/369
f 381/26/374 386/32/379 385/31/378
f 381/26/374 385/31/378 379/24/372
f 26/28/22 387/33/380 386/32/379
f 26/28/22 386/32/379 381/26/374
f 388/19/381 389/20/382 390/21/383
f 388/19/381 390/21/383 391/22/384
f 389/20/382 392/23/385 393/24/386
f 389/20/382 393/24/386 390/21/383
f 392/23/385 394/25/387 395/26/388
f 392/23/385 395/26/388 393/24/386
f 394/25/387 396/27/389 26/28/22
f 394/25/387 26/28/22 395/26/388
f 390/21/383 397/29/390 398/30/391
f 390/21/383 398/30/391 391/22/384
f 393/24/386 399/31/392 397/29/390
f 393/24/386 397/29/390 390/21/383
f 395/26/388 400/32/393 399/31/392
f 395/26/388 399/31/392 393/24/386
f 26/28/22 401/33/394 400/32/393
f 26/28/22 400/32/393 395/26/388
f 402/19/395 403/20/396 404/21/397
f 402/19/395 404/21/397 405/22/398
f 403/20/396 406/23/399 407/24/400
f 403/20/396 407/24/400 404/21/397
f 406/23/399 408/25/401 409/26/402
f 406/23/399 409/26/402 407/24/400
f 408/25/401 410/27/403 26/28/22
f 408/25/401 26/28/22 409/26/402
f 404/21/397 411/29/404 412/30/405
f 404/21/397 412/30/405 405/22/398
f 407/24/400 413/31/406 411/29/404
f 407/24/400 411/29/404 404/21/397
f 409/26/402 414/32/407 413/31/406
f 409/26/402 413/31/406 407/24/400
f 26/28/22 415/33/408 414/32/407
f 26/28/22 414/32/407 409/26/402
f 416/15/409 417/34/410 418/35/411
f 416/15/409 418/35/411 419/36/412
f 417/34/410 420/16/413 421/37/414
f 417/34/410 421/37/414 418/35/411
f 419/36/412 418/35/411 422/38/415
f 419/36/412 422/38/415 423/18/416
f 421/37/414 424/17/417 422/38/415
f 421/37/414 422/38/415 418/35/411
f 425/15/418 426/34/419 427/35/420
f 425/15/418 427/35/420 428/36/421
f 426/34/419 429/16/422 421/37/414
f 426/34/419 421/37/414 427/35/420
f 428/36/421 427/35/420 430/38/423
f 428/36/421 430/38/423 431/18/424
f 421/37/414 432/17/425 430/38/423
f 421/37/414 430/38/423 427/35/420
f 433/15/426 434/34/427 435/35/428
f 433/15/426 435/35/428 436/36/429
f 434/34/427 437/16/430 421/37/414
f 434/34/427 421/37/414 435/35/428
f 436/36/429 435/35/428 438/38/431
f 436/36/429 438/38/431 439/18/432
f 421/37/414 440/17/433 438/38/431
f 421/37/414 438/38/431 435/35/428
f 441/15/434 442/34/435 443/35/436
f 441/15/434 443/35/436 444/36/437
f 442/34/435 445/16/438 421/37/414
f 442/34/435 421/37/414 443/35/436
f 444/36/437 443/35/436 446/38/439
f 444/36/437 446/38/439 447/18/440
f 421/37/414 448/17/441 446/38/439
f 421/37/414 446/38/439 443/35/436
f 449/15/442 450/34/443 451/35/444
f 449/15/442 451/35/444 452/36/445
f 450/34/443 453/16/446 454/37/447
f 450/34/443 454/37/447 451/35/444
f 452/36/445 451/35/444 455/38/448
f 452/36/445 455/38/448 456/18/449
f 454/37/447 457/17/450 455/38/448
f 454/37/447 455/38/448 451/35/444
f 458/15/451 459/34/452 460/35/453
f 458/15/451 460/35/453 461/36/454
f 459/34/452 462/16/455 454/37/447
f 459/34/452 454/37/447 460/35/453
f 461/36/454 460/35/453 463/38/456
f 461/36/454 463/38/456 464/18/457
f 454/37/447 465/17/458 463/38/456
f 454/37/447 463/38/456 460/35/453
f 466/15/459 467/34/460 468/35/461
f 466/15/459 468/35/461 469/36/462
f 467/34/460 470/16/463 454/37/447
f 467/34/460 454/37/447 468/35/461
f 469/36/462 468/35/461 471/38/464
f 469/36/462 471/38/464 472/18/465
f 454/37/447 473/17/466 471/38/464
f 454/37/447 471/38/464 468/35/461
f 474/15/467 475/34/468 476/35/469
f 474/15/467 476/35/469 477/36/470
f 475/34/468 478/16/471 454/37/447
f 475/34/468 454/37/447 476/35/469
f 477/36/470 476/35/469 479/38/472
f 477/36/470 479/38/472 480/18/473
f 454/37/447 481/17/474 479/38/472
f 454/37/447 479/38/472 476/35/469
f 482/15/475 483/34/476 484/35/477
f 482/15/475 484/35/477 485/36/478
f 483/34/476 486/16/479 487/37/480
f 483/34/476 487/37/480 484/35/477
f 485/36/478 484/35/477 488/38/481
f 485/36/478 488/38/481 489/18/482
f 487/37/480 490/17/483 488/38/481
f 487/37/480 488/38/481 484/35/477
f 491/15/484 492/34/485 493/35/486
f 491/15/484 493/35/486 494/36/487
f 492/34/485 495/16/488 487/37/480
f 492/34/485 487/37/480 493/35/486
f 494/36/487 493/35/486 496/38/489
f 494/36/487 496/38/489 497/18/490
f 487/37/480 498/17/491 496/38/489
f 487/37/480 496/38/489 493/35/486
f 499/15/492 500/34/493 501/35/494
f 499/15/492 501/35/494 502/36/495
f 500/34/493 503/16/496 487/37/480
f 500/34/493 487/37/480 501/35/494
f 502/36/495 501/35/494 504/38/497
f 502/36/495 504/38/497 505/18/498
f 487/37/480 506/17/499 504/38/497
f 487/37/480 504/38/497 501/35/494
f 507/15/500 508/34/501 509/35/502
f 507/15/500 509/35/502 510/36/503
f 508/34/501 511/16/504 487/37/480
f 508/34/501 487/37/480 509/35/502
f 510/36/503 509/35/502 512/38/505
f 510/36/503 512/38/505 513/18/506
f 487/37/480 514/17/507 512/38/505
f 487/37/480 512/38/505 509/35/502
f 515/15/508 516/34/509 517/35/510
f 515/15/508 517/35/510 518/36/511
f 516/34/509 519/16/512 520/37/513
f 516/34/509 520/37/513 517/35/510
f 518/36/511 517/35/510 521/38/514
f 518/36/511 521/38/514 522/18/515
f 520/37/513 523/17/516 521/38/514
f 520/37/513 521/38/514 517/35/510
f 524/15/517 525/34/518 526/35/519
f 524/15/517 526/35/519 527/36/520
f 525/34/518 528/16/521 520/37/513
f 525/34/518 520/37/513 526/35/519
f 527/36/520 526/35/519 529/38/522
f 527/36/520 529/38/522 530/18/523
f 520/37/513 531/17/524 529/38/522
f 520/37/513 529/38/522 526/35/519
f 532/15/525 533/34/526 534/35/527
f 532/15/525 534/35/527 535/36/528
f 533/34/526 536/16/529 520/37/513
f 533/34/526 520/37/513 534/35/527
f 535/36/528 534/35/527 537/38/530
f 535/36/528 537/38/530 538/18/531
f 520/37/513 539/17/532 537/38/530
f 520/37/513 537/38/530 534/35/527
f 540/15/533 541/34/534 542/35/535
f 540/15/533 542/35/535 543/36/536
f 541/34/534 544/16/537 520/37/513
f 541/34/534 520/37/513 542/35/535
f 543/36/536 542/35/535 545/38/538
f 543/36/536 545/38/538 546/18/539
f 520/37/513 547/17/540 545/38/538
f 520/37/513 545/38/538 542/35/535
f 548/15/541 549/34/542 550/35/543
f 548/15/541 550/35/543 551/36/544
f 549/34/542 552/16/545 520/37/513
f 549/34/542 520/37/513 550/35/543
f 551/36/544 550/35/543 553/38/546
f 551/36/544 553/38/546 554/18/547
f 520/37/513 555/17/548 553/38/546
f 520/37/513 553/38/546 550/35/543
f 556/15/549 557/34/550 558/35/551
f 556/15/549 558/35/551 559/36/552
f 557/34/550 560/16/553 561/37/554
f 557/34/550 561/37/554 558/35/551
f 559/36/552 558/35/551 562/38/555
f 559/36/552 562/38/555 563/18/556
f 561/37/554 564/17/557 562/38/555
f 561/37/554 562/38/555 558/35/551
f 565/15/558 566/34/559 567/35/560
f 565/15/558 567/35/560 568/36/561
f 566/34/559 569/16/562 561/37/554
f 566/34/559 561/37/554 567/35/560
f 568/36/561 567/35/560 570/38/563
f 568/36/561 570/38/563 571/18/564
f 561/37/554 572/17/565 570/38/563
f 561/37/554 570/38/563 567/35/560
f 573/15/566 574/34/567 575/35/568
f 573/15/566 575/35/568 576/36/569
f 574/34/567 577/16/570 561/37/554
f 574/34/567 561/37/554 575/35/568
f 576/36/569 575/35/568 578/38/571
f 576/36/569 578/38/571 579/18/572
f 561/37/554 580/17/573 578/38/571
f 561/37/554 578/38/571 575/35/568
f 581/15/574 582/34/575 583/35/576
f 581/15/574 583/35/576 584/36/577
f 582/34/575 585/16/578 561/37/554
f 582/34/575 561/37/554 583/35/576
f 584/36/577 583/35/576 586/38/579
f 584/36/577 586/38/579 587/18/580
f 561/37/554 588/17/581 586/38/579
f 561/37/554 586/38/579 583/35/576
f 589/15/582 590/34/583 591/35/584
f 589/15/582 591/35/584 592/36/585
f 590/34/583 593/16/586 561/37/554
f 590/34/583 561/37/554 591/35/584
f 592/36/585 591/35/584 594/38/587
f 592/36/585 594/38/587 595/18/588
f 561/37/554 596/17/589 594/38/587
f 561/37/554 594/38/587 591/35/584
f 597/15/590 598/39/591 599/40/592
f 597/15/590 599/40/592 600/36/593
f 598/39/591 601/41/594 602/42/595
f 598/39/591 602/42/595 599/40/592
f 601/41/594 603/16/596 604/37/597
f 601/41/594 604/37/597 602/42/595
f 599/40/592 605/43/598 606/18/599
f 599/40/592 606/18/599 600/36/593
f 602/42/595 607/44/600 605/43/598
f 602/42/595 605/43/598 599/40/592
f 608/17/601 607/44/600 602/42/595
f 608/17/601 602/42/595 604/37/597
f 609/15/602 610/39/603 611/40/604
f 609/15/602 611/40/604 612/36/605
f 610/39/603 613/41/606 614/42/607
f 610/39/603 614/42/607 611/40/604
f 613/41/606 615/16/608 604/37/597
f 613/41/606 604/37/597 614/42/607
f 611/40/604 616/43/609 617/18/610
f 611/40/604 617/18/610 612/36/605
f 614/42/607 618/44/611 616/43/609
f 614/42/607 616/43/609 611/40/604
f 619/17/612 618/44/611 614/42/607
f 619/17/612 614/42/607 604/37/597
f 620/15/613 621/39/614 622/40/615
f 620/15/613 622/40/615 623/36/616
f 621/39/614 624/41/617 625/42/618
f 621/39/614 625/42/618 622/40/615
f 624/41/617 626/16/619 604/37/597
f 624/41/617 604/37/597 625/42/618
f 622/40/615 627/43/620 628/18/621
f 622/40/615 628/18/621 623/36/616
f 625/42/618 629/44/622 627/43/620
f 625/42/618 627/43/620 622/40/615
f 630/17/623 629/44/622 625/42/618
f 630/17/623 625/42/618 604/37/597
f 631/15/624 632/39/625 633/40/626
f 631/15/624 633/40/626 634/36/627
f 632/39/625 635/41/628 636/42/629
f 632/39/625 636/42/629 633/40/626
f 635/41/628 637/16/630 604/37/597
f 635/41/628 604/37/597 636/42/629
f 633/40/626 638/43/631 639/18/632
f 633/40/626 639/18/632 634/36/627
f 636/42/629 640/44/633 638/43/631
f 636/42/629 638/43/631 633/40/626
f 641/17/634 640/44/633 636/42/629
f 641/17/634 636/42/629 604/37/597
f 642/15/635 643/39/636 644/40/637
f 642/15/635 644/40/637 645/36/638
f 643/39/636 646/41/639 647/42/640
f 643/39/636 647/42/640 644/40/637
f 646/41/639 648/16/641 604/37/597
f 646/41/639 604/37/597 647/42/640
f 644/40/637 649/43/642 650/18/643
f 644/40/637 650/18/643 645/36/638
f 647/42/640 651/44/644 649/43/642
f 647/42/640 649/43/642 644/40/637
f 652/17/645 651/44/644 647/42/640
f 652/17/645 647/42/640 604/37/597
f 653/15/646 654/39/647 655/40/648
f 653/15/646 655/40/648 656/36/649
f 654/39/647 657/41/650 658/42/651
f 654/39/647 658/42/651 655/40/648
f 657/41/650 659/16/652 604/37/597
f 657/41/650 604/37/597 658/42/651
f 655/40/648 660/43/653 661/18/654
f 655/40/648 661/18/654 656/36/649
f 658/42/651 662/44/655 660/43/653
f 658/42/651 660/43/653 655/40/648
f 663/17/656 662/44/655 658/42/651
f 663/17/656 658/42/651 604/37/597
f 664/15/657 665/39/658 666/40/659
f 664/15/657 666/40/659 667/36/660
f 665/39/658 668/41/661 669/42/662
f 665/39/658 669/42/662 666/40/659
f 668/41/661 670/16/663 671/37/664
f 668/41/661 671/37/664 669/42/662
f 666/40/659 672/43/665 673/18/666
f 666/40/659 673/18/666 667/36/660
f 669/42/662 674/44/667 672/43/665
f 669/42/662 672/43/665 666/40/659
f 675/17/668 674/44/667 669/42/662
f 675/17/668 669/42/662 671/37/664
f 676/15/669 677/39/670 678/40/671
f 676/15/669 678/40/671 679/36/672
f 677/39/670 680/41/673 681/42/674
f 677/39/670 681/42/674 678/40/671
f 680/41/673 682/16/675 671/37/664
f 680/41/673 671/37/664 681/42/674
f 678/40/671 683/43/676 684/18/677
f 678/40/671 684/18/677 679/36/672
f 681/42/674 685/44/678 683/43/676
f 681/42/674 683/43/676 678/40/671
f 686/17/679 685/44/678 681/42/674
f 686/17/679 681/42/674 671/37/664
f 687/15/680 688/39/681 689/40/682
f 687/15/680 689/40/682 690/36/683
f 688/39/681 691/41/684 692/42/685
f 688/39/681 692/42/685 689/40/682
f 691/41/684 693/16/686 671/37/664
f 691/41/684 671/37/664 692/42/685
f 689/40/682 694/43/687 695/18/688
f 689/40/682 695/18/688 690/36/683
f 692/42/685 696/44/689 694/43/687
f 692/42/685 694/43/687 689/40/682
f 697/17/690 696/44/689 692/42/685
f 697/17/690 692/42/685 671/37/664
f 698/15/691 699/39/692 700/40/693
f 698/15/691 700/40/693 701/36/694
f 699/39/692 702/41/695 703/42/696
f 699/39/692 703/42/696 700/40/693
f 702/41/695 704/16/697 671/37/664
f 702/41/695 671/37/664 703/42/696
f 700/40/693 705/43/698 706/18/699
f 700/40/693 706/18/699 701/36/694
f 703/42/696 707/44/700 705/43/698
f 703/42/696 705/43/698 700/40/693
f 708/17/701 707/44/700 703/42/696
f 708/17/701 703/42/696 671/37/664
f 709/15/702 710/39/703 711/40/704
f 709/15/702 711/40/704 712/36/705
f 710/39/703 713/41/706 714/42/707
f 710/39/703 714/42/707 711/40/704
f 713/41/706 715/16/708 671/37/664
f 713/41/706 671/37/664 714/42/707
f 711/40/704 716/43/709 717/18/710
f 711/40/704 717/18/710 712/36/705
f 714/42/707 718/44/711 716/43/709
f 714/42/707 716/43/709 711/40/704
f 719/17/712 718/44/711 714/42/707
f 719/17/712 714/42/707 671/37/664
f 720/15/713 721/39/714 722/40/715
f 720/15/713 722/40/715 723/36/716
f 721/39/714 724/41/717 725/42/718
f 721/39/714 725/42/718 722/40/715
f 724/41/717 726/16/719 671/37/664
f 724/41/717 671/37/664 725/42/718
f 722/40/715 727/43/720 728/18/721
f 722/40/715 728/18/721 723/36/716
f 725/42/718 729/44/722 727/43/720
f 725/42/718 727/43/720 722/40/715
f 730/17/723 729/44/722 725/42/718
f 730/17/723 725/42/718 671/37/664
f 731/15/724 732/34/725 733/35/726
f 731/15/724 733/35/726 734/36/727
f 732/34/725 735/16/728 736/37/729
f 732/34/725 736/37/729 733/35/726
f 734/36/727 733/35/726 737/38/730
f 734/36/727 737/38/730 738/18/731
f 736/37/729 739/17/732 737/38/730
f 736/37/729 737/38/730 733/35/726
f 740/15/733 741/34/734 742/35/735
f 740/15/733 742/35/735 743/36/736
f 741/34/734 744/16/737 736/37/729
f 741/34/734 736/37/729 742/35/735
f 743/36/736 742/35/735 745/38/738
f 743/36/736 745/38/738 746/18/739
f 736/37/729 747/17/740 745/38/738
f 736/37/729 745/38/738 742/35/735
f 748/15/741 749/34/742 750/35/743
f 748/15/741 750/35/743 751/36/744
f 749/34/742 752/16/745 736/37/729
f 749/34/742 736/37/729 750/35/743
f 751/36/744 750/35/743 753/38/746
f 751/36/744 753/38/746 754/18/747
f 736/37/729 755/17/748 753/38/746
f 736/37/729 753/38/746 750/35/743
f 756/15/749 757/34/750 758/35/751
f 756/15/749 758/35/751 759/36/752
f 757/34/750 760/16/753 736/37/729
f 757/34/750 736/37/729 758/35/751
f 759/36/752 758/35/751 761/38/754
f 759/36/752 761/38/754 762/18/755
f 736/37/729 763/17/756 761/38/754
f 736/37/729 761/38/754 758/35/751
